<?xml version="1.0" encoding="UTF-8"?>
<!DOCTYPE svg PUBLIC "-//W3C//DTD SVG 1.1//EN" "http://www.w3.org/Graphics/SVG/1.1/DTD/svg11.dtd">
<svg version="1.2" width="215.9mm" height="279.4mm" viewBox="0 0 21590 27940" preserveAspectRatio="xMidYMid" fill-rule="evenodd" stroke-width="28.222" stroke-linejoin="round" xmlns="http://www.w3.org/2000/svg" xmlns:ooo="http://xml.openoffice.org/svg/export" xmlns:xlink="http://www.w3.org/1999/xlink" xmlns:presentation="http://sun.com/xmlns/staroffice/presentation" xmlns:smil="http://www.w3.org/2001/SMIL20/" xmlns:anim="urn:oasis:names:tc:opendocument:xmlns:animation:1.0" xml:space="preserve">
 <defs class="ClipPathGroup">
  <clipPath id="presentation_clip_path" clipPathUnits="userSpaceOnUse">
   <rect x="0" y="0" width="21590" height="27940"/>
  </clipPath>
  <clipPath id="presentation_clip_path_shrink" clipPathUnits="userSpaceOnUse">
   <rect x="21" y="27" width="21547" height="27885"/>
  </clipPath>
 </defs>
 <defs>
  <font id="EmbeddedFont_1" horiz-adv-x="2048">
   <font-face font-family="Courier New embedded" units-per-em="2048" font-weight="normal" font-style="normal" ascent="1693" descent="628"/>
   <missing-glyph horiz-adv-x="2048" d="M 0,0 L 2047,0 2047,2047 0,2047 0,0 Z"/>
   <glyph unicode="z" horiz-adv-x="794" d="M 982,866 L 982,791 353,84 921,84 921,200 C 921,220 925,234 933,243 940,252 950,256 963,256 976,256 986,252 994,243 1002,234 1006,220 1006,200 L 1005,0 237,0 237,75 863,781 341,781 341,667 C 341,647 337,633 329,624 321,615 311,611 299,611 286,611 276,615 268,624 260,633 256,647 256,667 L 256,866 Z"/>
   <glyph unicode="y" horiz-adv-x="1066" d="M 620,0 L 230,781 205,781 C 185,781 171,785 162,793 153,801 149,811 149,823 149,832 151,840 156,847 160,854 166,859 173,862 180,865 190,866 205,866 L 435,866 C 455,866 469,862 478,854 487,846 491,836 491,823 491,811 487,801 478,793 469,785 455,781 435,781 L 322,781 665,92 1003,781 890,781 C 870,781 856,785 847,793 838,801 834,811 834,824 834,836 838,846 847,854 856,862 870,866 890,866 L 1119,866 C 1140,866 1154,862 1163,854 1172,846 1176,836 1176,823 1176,814 1173,806 1168,799 1163,792 1157,787 1150,785 1143,782 1125,781 1094,781 L 562,-302 693,-302 C 713,-302 727,-306 736,-314 745,-321 749,-331 749,-344 749,-356 745,-366 736,-374 727,-382 713,-386 693,-386 L 209,-386 C 189,-386 175,-382 166,-375 157,-367 153,-357 153,-344 153,-331 157,-321 166,-314 175,-306 189,-302 209,-302 L 472,-302 Z"/>
   <glyph unicode="x" horiz-adv-x="1066" d="M 672,453 L 1057,84 C 1082,84 1098,83 1105,81 1112,78 1118,73 1123,66 1128,59 1130,51 1130,42 1130,30 1126,20 1117,12 1108,4 1094,0 1073,0 L 803,0 C 782,0 768,4 759,12 750,20 746,30 746,42 746,55 750,65 759,73 768,80 782,84 803,84 L 942,84 615,397 290,84 430,84 C 450,84 464,80 473,73 482,65 486,55 486,42 486,30 482,20 473,12 464,4 450,0 430,0 L 157,0 C 137,0 123,4 114,12 105,20 101,30 101,42 101,51 104,59 109,66 114,73 119,78 126,81 132,83 148,84 173,84 L 558,453 216,781 C 192,781 177,782 171,785 164,788 159,793 154,800 149,807 146,815 146,824 146,836 150,846 159,854 168,862 182,866 203,866 L 432,866 C 453,866 467,862 476,854 484,846 488,836 488,823 488,811 484,801 476,793 467,785 453,781 432,781 L 332,781 615,508 900,781 800,781 C 780,781 766,785 757,793 748,801 743,811 743,824 743,836 747,846 756,854 765,862 779,866 800,866 L 1029,866 C 1049,866 1063,862 1072,854 1081,846 1085,836 1085,823 1085,815 1083,807 1078,800 1073,793 1067,788 1061,785 1054,782 1039,781 1015,781 Z"/>
   <glyph unicode="w" horiz-adv-x="1120" d="M 904,0 L 800,-1 615,539 431,-1 327,0 153,781 112,781 C 92,781 78,785 69,793 60,801 56,811 56,824 56,836 60,846 69,854 78,862 92,866 112,866 L 343,866 C 363,866 377,862 386,854 395,846 399,836 399,823 399,811 395,801 386,793 377,785 363,781 343,781 L 236,781 385,115 564,647 664,647 848,115 991,781 885,781 C 865,781 851,785 842,793 833,801 828,811 828,824 828,836 832,846 841,854 850,862 864,866 885,866 L 1115,866 C 1136,866 1150,862 1159,854 1168,846 1172,836 1172,823 1172,811 1168,801 1159,793 1150,785 1136,781 1115,781 L 1075,781 Z"/>
   <glyph unicode="v" horiz-adv-x="1120" d="M 688,0 L 546,0 201,781 115,781 C 95,781 81,785 72,793 63,801 59,811 59,824 59,836 63,846 72,854 81,862 95,866 115,866 L 430,866 C 450,866 464,862 473,854 482,846 486,836 486,823 486,811 482,801 473,793 464,785 450,781 430,781 L 291,781 599,84 636,84 938,781 798,781 C 778,781 764,785 755,793 746,801 742,811 742,824 742,836 746,846 755,854 764,862 778,866 798,866 L 1114,866 C 1135,866 1149,862 1158,854 1166,846 1170,836 1170,823 1170,811 1166,801 1158,793 1149,785 1135,781 1114,781 L 1029,781 Z"/>
   <glyph unicode="u" horiz-adv-x="1039" d="M 902,0 L 902,123 C 787,19 663,-33 530,-33 448,-33 386,-11 343,34 288,93 260,161 260,239 L 260,781 147,781 C 127,781 113,785 104,793 95,801 91,811 91,824 91,836 95,846 104,854 113,862 127,866 147,866 L 344,866 344,239 C 344,184 361,139 396,104 431,69 474,51 526,51 663,51 788,114 902,239 L 902,781 747,781 C 727,781 713,785 704,793 695,801 691,811 691,824 691,836 695,846 704,854 713,862 727,866 747,866 L 986,866 986,84 1057,84 C 1077,84 1091,80 1100,73 1109,65 1113,55 1113,42 1113,30 1109,20 1100,12 1091,4 1077,0 1057,0 Z"/>
   <glyph unicode="t" horiz-adv-x="956" d="M 442,866 L 898,866 C 918,866 932,862 941,854 950,846 954,836 954,823 954,811 950,801 941,793 932,785 918,781 898,781 L 442,781 442,222 C 442,173 462,133 501,100 540,67 597,51 672,51 729,51 790,60 856,77 922,94 973,113 1010,134 1023,143 1034,147 1043,147 1054,147 1063,143 1071,135 1079,126 1083,116 1083,105 1083,95 1079,86 1070,77 1049,55 997,31 915,6 832,-20 753,-33 678,-33 580,-33 502,-10 444,36 386,82 357,144 357,222 L 357,781 202,781 C 182,781 168,785 159,793 150,801 146,811 146,824 146,836 150,846 159,854 168,862 182,866 202,866 L 357,866 357,1114 C 357,1134 361,1148 369,1157 377,1166 387,1170 399,1170 412,1170 422,1166 430,1157 438,1148 442,1134 442,1114 Z"/>
   <glyph unicode="s" horiz-adv-x="848" d="M 892,811 C 892,830 896,844 904,853 912,862 922,866 934,866 947,866 957,862 965,853 973,844 977,830 977,809 L 977,665 C 977,645 973,631 965,622 957,613 947,609 934,609 923,609 913,613 906,620 898,627 893,639 892,656 888,696 867,729 830,755 775,792 703,811 613,811 519,811 446,792 394,754 355,725 335,693 335,658 335,618 358,585 405,558 437,539 498,525 587,515 704,502 785,488 830,472 895,449 943,416 975,375 1006,334 1022,289 1022,241 1022,170 988,106 919,51 850,-5 750,-33 617,-33 484,-33 376,1 291,68 291,45 290,31 287,24 284,17 280,12 273,7 266,2 258,0 249,0 237,0 227,4 219,13 211,22 207,36 207,56 L 207,229 C 207,249 211,263 219,272 226,281 236,285 249,285 261,285 271,281 280,273 288,264 292,253 292,239 292,208 300,183 315,162 338,130 376,104 427,83 478,62 540,51 614,51 723,51 805,71 858,112 911,153 938,196 938,241 938,293 911,335 857,366 802,397 723,418 619,429 514,440 439,454 394,471 349,488 313,514 288,549 263,584 250,621 250,661 250,733 285,790 356,833 427,875 511,896 609,896 725,896 819,868 892,811 Z"/>
   <glyph unicode="r" horiz-adv-x="957" d="M 514,866 L 514,654 C 623,753 705,816 760,845 814,873 864,887 910,887 960,887 1007,870 1050,837 1093,803 1114,777 1114,760 1114,747 1110,737 1102,729 1093,720 1083,716 1070,716 1063,716 1058,717 1053,720 1048,722 1040,729 1027,742 1004,765 983,781 966,790 949,799 932,803 915,803 878,803 834,788 783,759 731,730 641,658 514,544 L 514,84 886,84 C 907,84 921,80 930,73 939,65 943,55 943,42 943,30 939,20 930,12 921,4 907,0 886,0 L 227,0 C 207,0 193,4 184,12 175,19 171,29 171,41 171,52 175,62 184,70 192,77 206,81 227,81 L 430,81 430,781 275,781 C 255,781 241,785 232,793 223,801 219,811 219,824 219,836 223,846 232,854 240,862 254,866 275,866 Z"/>
   <glyph unicode="q" horiz-adv-x="1094" d="M 940,713 L 940,866 1137,866 C 1158,866 1172,862 1181,854 1190,846 1194,836 1194,823 1194,811 1190,801 1181,793 1172,785 1158,781 1137,781 L 1025,781 1025,-302 1137,-302 C 1158,-302 1172,-306 1181,-314 1190,-321 1194,-331 1194,-344 1194,-356 1190,-366 1181,-374 1172,-382 1158,-386 1137,-386 L 737,-386 C 717,-386 703,-382 694,-375 685,-367 681,-357 681,-344 681,-331 685,-321 694,-314 703,-306 717,-302 737,-302 L 940,-302 940,204 C 847,82 726,21 575,21 450,21 344,64 258,150 171,235 128,338 128,459 128,580 171,684 258,769 344,854 450,896 577,896 726,896 847,835 940,713 Z M 940,459 C 940,556 905,639 834,708 763,777 677,811 576,811 475,811 389,777 318,708 247,639 212,556 212,459 212,362 247,279 318,210 389,141 475,106 576,106 677,106 763,141 834,210 905,279 940,362 940,459 Z"/>
   <glyph unicode="p" horiz-adv-x="1094" d="M 298,866 L 298,713 C 348,774 402,819 459,850 516,881 584,896 662,896 745,896 821,877 891,838 961,799 1015,746 1054,677 1092,608 1111,535 1111,459 1111,338 1068,235 982,150 895,64 789,21 663,21 513,21 391,82 298,204 L 298,-302 502,-302 C 522,-302 536,-306 545,-314 554,-321 558,-331 558,-344 558,-356 554,-366 545,-374 536,-382 522,-386 502,-386 L 101,-386 C 81,-386 67,-382 58,-375 49,-367 45,-357 45,-344 45,-331 49,-321 58,-314 67,-306 81,-302 101,-302 L 214,-302 214,781 101,781 C 81,781 67,785 58,793 49,801 45,811 45,824 45,836 49,846 58,854 67,862 81,866 101,866 Z M 1026,459 C 1026,556 991,639 921,708 850,777 764,811 663,811 561,811 475,776 404,707 333,638 298,555 298,459 298,362 333,279 404,210 475,141 561,106 663,106 764,106 849,141 920,210 991,279 1026,362 1026,459 Z"/>
   <glyph unicode="o" horiz-adv-x="956" d="M 1084,431 C 1084,303 1038,194 947,103 855,12 744,-33 615,-33 484,-33 373,13 282,104 191,195 145,304 145,431 145,559 191,669 282,760 373,851 484,896 615,896 744,896 855,851 947,760 1038,669 1084,560 1084,431 Z M 999,431 C 999,536 962,626 887,700 812,774 721,811 614,811 507,811 417,774 342,700 267,625 229,536 229,431 229,327 267,238 342,163 417,88 507,51 614,51 721,51 812,88 887,163 962,237 999,326 999,431 Z"/>
   <glyph unicode="n" horiz-adv-x="1039" d="M 343,866 L 343,739 C 402,798 455,839 502,862 549,885 603,896 662,896 726,896 784,882 837,855 874,835 908,802 939,756 969,709 984,662 984,613 L 984,84 1055,84 C 1075,84 1089,80 1098,73 1107,65 1111,55 1111,42 1111,30 1107,20 1098,12 1089,4 1075,0 1055,0 L 830,0 C 809,0 795,4 786,12 777,20 773,30 773,42 773,55 777,65 786,73 795,80 809,84 830,84 L 900,84 900,599 C 900,658 878,709 835,750 792,791 734,811 661,811 606,811 558,800 517,778 476,755 418,700 343,611 L 343,84 438,84 C 458,84 472,80 481,73 490,65 494,55 494,42 494,30 490,20 481,12 472,4 458,0 438,0 L 164,0 C 144,0 130,4 121,12 112,20 108,30 108,42 108,55 112,65 121,73 130,80 144,84 164,84 L 259,84 259,781 188,781 C 168,781 154,785 145,793 136,801 132,811 132,824 132,836 136,846 145,854 154,862 168,866 188,866 Z"/>
   <glyph unicode="m" horiz-adv-x="1230" d="M 232,866 L 232,781 C 303,858 375,896 447,896 490,896 528,885 561,862 594,839 621,804 643,757 680,804 718,839 757,862 795,885 833,896 872,896 933,896 981,876 1017,837 1064,786 1088,731 1088,671 L 1088,84 1159,84 C 1179,84 1193,80 1202,73 1211,65 1215,55 1215,42 1215,30 1211,20 1202,12 1193,4 1179,0 1159,0 L 1004,0 1004,663 C 1004,706 991,741 965,769 939,797 909,811 875,811 844,811 812,800 778,777 744,754 705,708 662,641 L 662,84 732,84 C 752,84 766,80 775,73 784,65 788,55 788,42 788,30 784,20 775,12 766,4 752,0 732,0 L 577,0 577,657 C 577,702 564,739 538,768 511,797 482,811 449,811 419,811 389,801 360,782 319,755 277,708 232,641 L 232,84 303,84 C 323,84 337,80 346,73 355,65 359,55 359,42 359,30 355,20 346,12 337,4 323,0 303,0 L 77,0 C 57,0 43,4 34,12 25,20 21,30 21,42 21,55 25,65 34,73 43,80 57,84 77,84 L 148,84 148,781 77,781 C 57,781 43,785 34,793 25,801 21,811 21,824 21,836 25,846 34,854 43,862 57,866 77,866 Z"/>
   <glyph unicode="l" horiz-adv-x="902" d="M 657,1255 L 657,84 987,84 C 1008,84 1022,80 1031,73 1040,65 1044,55 1044,42 1044,30 1040,20 1031,12 1022,4 1008,0 987,0 L 243,0 C 223,0 209,4 200,12 191,20 187,30 187,42 187,55 191,65 200,73 209,80 223,84 243,84 L 573,84 573,1170 331,1170 C 311,1170 297,1174 288,1182 279,1190 274,1200 274,1213 274,1225 278,1235 287,1243 296,1251 310,1255 331,1255 Z"/>
   <glyph unicode="k" horiz-adv-x="1011" d="M 444,374 L 444,0 247,0 C 227,0 213,4 204,12 195,20 191,30 191,42 191,55 195,65 204,73 213,80 227,84 247,84 L 360,84 360,1170 247,1170 C 227,1170 213,1174 204,1182 195,1190 191,1200 191,1213 191,1225 195,1235 204,1243 213,1251 227,1255 247,1255 L 444,1255 444,481 801,781 758,781 C 738,781 724,785 715,793 706,801 702,811 702,823 702,836 706,846 715,854 724,862 738,866 758,866 L 1027,866 C 1048,866 1062,862 1071,854 1080,846 1084,836 1084,823 1084,811 1080,801 1071,793 1062,785 1048,781 1027,781 L 930,781 602,507 1017,84 1114,84 C 1135,84 1149,80 1158,73 1167,65 1171,55 1171,42 1171,30 1167,20 1158,12 1149,4 1135,0 1114,0 L 842,0 C 822,0 808,4 799,12 790,20 786,30 786,42 786,55 790,65 799,73 808,80 822,84 842,84 L 901,84 540,455 Z"/>
   <glyph unicode="i" horiz-adv-x="902" d="M 656,1297 L 656,1080 532,1080 532,1297 Z M 659,866 L 659,84 989,84 C 1010,84 1024,80 1033,73 1042,65 1046,55 1046,42 1046,30 1042,20 1033,12 1024,4 1010,0 989,0 L 245,0 C 225,0 211,4 202,12 193,20 189,30 189,42 189,55 193,65 202,73 211,80 225,84 245,84 L 575,84 575,781 330,781 C 310,781 296,785 287,793 278,801 273,811 273,823 273,836 277,846 286,854 295,862 309,866 330,866 Z"/>
   <glyph unicode="h" horiz-adv-x="1066" d="M 338,1255 L 338,738 C 391,796 443,837 492,861 541,884 595,896 656,896 721,896 777,885 823,862 868,839 906,803 937,756 968,708 983,658 983,605 L 983,84 1077,84 C 1098,84 1112,80 1121,73 1129,65 1133,55 1133,42 1133,30 1129,20 1121,12 1112,4 1098,0 1077,0 L 804,0 C 783,0 769,4 760,12 751,20 747,30 747,42 747,55 751,65 760,73 769,80 783,84 804,84 L 898,84 898,599 C 898,660 876,710 833,751 789,792 728,812 650,812 589,812 536,797 493,767 462,746 410,695 338,616 L 338,84 433,84 C 453,84 467,80 476,73 485,65 489,55 489,42 489,30 485,20 476,12 467,4 453,0 433,0 L 159,0 C 139,0 125,4 116,12 107,20 103,30 103,42 103,55 107,65 116,73 125,80 139,84 159,84 L 254,84 254,1170 141,1170 C 121,1170 107,1174 98,1182 89,1190 85,1200 85,1213 85,1225 89,1235 98,1243 107,1251 121,1255 141,1255 Z"/>
   <glyph unicode="g" horiz-adv-x="1066" d="M 897,712 L 897,866 1094,866 C 1114,866 1128,862 1137,854 1146,846 1150,836 1150,823 1150,811 1146,801 1137,793 1128,785 1114,781 1094,781 L 981,781 981,-58 C 981,-114 969,-164 945,-208 929,-237 902,-268 865,-299 828,-330 794,-353 763,-366 732,-379 691,-386 640,-386 L 402,-386 C 382,-386 368,-382 359,-375 350,-367 346,-357 346,-344 346,-331 350,-321 359,-313 368,-305 382,-301 402,-301 L 643,-302 C 692,-302 737,-289 777,-264 816,-239 849,-202 875,-153 890,-125 897,-89 897,-46 L 897,206 C 807,83 691,21 549,21 434,21 334,64 251,150 167,235 125,338 125,459 125,580 167,683 251,768 334,853 434,896 549,896 691,896 807,835 897,712 Z M 897,459 C 897,558 863,641 796,709 728,777 647,811 553,811 459,811 378,777 311,709 244,640 210,557 210,459 210,360 244,277 311,209 378,140 459,106 553,106 647,106 728,140 796,209 863,277 897,360 897,459 Z"/>
   <glyph unicode="f" horiz-adv-x="930" d="M 559,781 L 559,84 928,84 C 948,84 962,80 971,73 980,65 984,55 984,42 984,30 980,20 971,12 962,4 948,0 928,0 L 271,0 C 251,0 237,4 228,12 219,20 215,30 215,42 215,55 219,65 228,73 237,80 251,84 271,84 L 474,84 474,781 292,781 C 272,781 258,785 249,793 240,801 236,811 236,824 236,836 240,846 249,854 258,862 272,866 292,866 L 474,866 474,993 C 474,1064 503,1125 560,1177 617,1229 693,1255 788,1255 867,1255 952,1248 1042,1233 1076,1228 1097,1221 1104,1214 1111,1207 1114,1197 1114,1185 1114,1173 1110,1163 1102,1156 1094,1148 1083,1144 1070,1144 1065,1144 1056,1145 1043,1147 942,1162 857,1170 788,1170 715,1170 658,1152 619,1116 579,1080 559,1039 559,993 L 559,866 952,866 C 972,866 986,862 995,854 1004,846 1008,836 1008,823 1008,811 1004,801 995,793 986,785 972,781 952,781 Z"/>
   <glyph unicode="e" horiz-adv-x="984" d="M 1069,413 L 213,413 C 228,304 273,217 350,151 426,84 520,51 633,51 696,51 761,61 830,82 899,103 955,130 998,164 1011,174 1022,179 1031,179 1042,179 1051,175 1059,167 1067,158 1071,148 1071,137 1071,126 1066,115 1055,104 1023,71 966,40 885,11 803,-19 719,-33 633,-33 489,-33 369,14 273,109 176,203 128,317 128,451 128,573 173,678 264,765 354,852 466,896 599,896 736,896 849,851 938,762 1027,672 1070,556 1069,413 Z M 984,498 C 967,591 924,666 853,724 782,782 697,811 599,811 501,811 417,782 346,725 275,668 231,592 214,498 Z"/>
   <glyph unicode="d" horiz-adv-x="1094" d="M 1026,1255 L 1026,84 1138,84 C 1159,84 1173,80 1182,73 1191,65 1195,55 1195,42 1195,30 1191,20 1182,12 1173,4 1159,0 1138,0 L 941,0 941,167 C 844,34 720,-33 570,-33 494,-33 421,-13 352,28 282,68 227,125 187,200 146,275 126,352 126,431 126,511 146,588 187,663 227,737 282,794 352,835 421,876 494,896 571,896 718,896 841,829 941,696 L 941,1170 829,1170 C 808,1170 794,1174 785,1182 776,1190 772,1200 772,1213 772,1225 776,1235 785,1243 794,1251 808,1255 829,1255 Z M 941,431 C 941,538 905,628 833,701 761,774 675,811 576,811 476,811 390,774 318,701 246,628 210,538 210,431 210,325 246,235 318,162 390,88 476,51 576,51 675,51 761,88 833,162 905,235 941,325 941,431 Z"/>
   <glyph unicode="c" horiz-adv-x="957" d="M 965,781 L 965,809 C 965,830 969,844 977,853 985,862 995,866 1007,866 1020,866 1030,862 1038,853 1046,844 1050,830 1050,809 L 1050,619 C 1049,598 1045,584 1038,575 1030,566 1020,562 1007,562 996,562 986,566 979,574 971,581 966,594 965,612 961,659 930,704 872,747 813,790 735,811 636,811 511,811 417,772 352,694 287,616 255,527 255,426 255,317 291,228 362,157 433,86 526,51 639,51 704,51 771,63 839,87 906,111 967,150 1022,203 1036,216 1048,223 1059,223 1070,223 1080,219 1088,212 1095,204 1099,194 1099,183 1099,154 1065,118 998,74 889,3 768,-33 635,-33 500,-33 389,10 302,97 215,183 171,292 171,425 171,560 216,673 305,762 394,851 506,896 641,896 770,896 878,858 965,781 Z"/>
   <glyph unicode="b" horiz-adv-x="1094" d="M 298,1255 L 298,698 C 399,830 522,896 665,896 788,896 893,852 980,763 1067,674 1111,564 1111,435 1111,304 1067,194 979,103 890,12 786,-33 665,-33 518,-33 396,33 298,165 L 298,0 101,0 C 81,0 67,4 58,12 49,20 45,30 45,42 45,55 49,65 58,73 67,80 81,84 101,84 L 214,84 214,1170 101,1170 C 81,1170 67,1174 58,1182 49,1190 45,1200 45,1213 45,1225 49,1235 58,1243 67,1251 81,1255 101,1255 Z M 1027,431 C 1027,537 991,627 918,701 845,774 760,811 663,811 566,811 481,774 408,701 335,627 299,537 299,431 299,325 335,235 408,162 481,88 566,51 663,51 760,51 845,88 918,162 991,235 1027,325 1027,431 Z"/>
   <glyph unicode="a" horiz-adv-x="984" d="M 856,0 L 856,121 C 734,18 604,-33 465,-33 364,-33 286,-8 229,44 172,95 144,157 144,231 144,312 181,383 256,444 331,505 440,535 583,535 622,535 664,533 709,528 754,523 803,515 856,504 L 856,640 C 856,686 835,726 792,760 749,794 685,811 600,811 535,811 443,792 325,754 304,747 290,744 284,744 273,744 264,748 257,756 249,764 245,774 245,786 245,797 248,806 255,813 264,823 302,837 368,854 472,882 551,896 604,896 710,896 793,870 852,818 911,765 941,706 941,640 L 941,84 1053,84 C 1074,84 1088,80 1097,73 1106,65 1110,55 1110,42 1110,30 1106,20 1097,12 1088,4 1074,0 1053,0 Z M 856,418 C 817,429 775,438 731,443 687,448 641,451 592,451 470,451 375,425 306,372 254,333 228,286 228,231 228,180 248,138 288,103 327,68 385,51 461,51 534,51 601,66 664,95 726,124 790,170 856,233 Z"/>
   <glyph unicode="_" horiz-adv-x="1230" d="M 1173,-561 L 56,-561 C 36,-561 22,-557 13,-550 4,-542 0,-532 0,-519 0,-506 4,-496 13,-489 22,-481 36,-477 56,-477 L 1173,-477 C 1194,-477 1208,-481 1217,-489 1225,-496 1229,-506 1229,-519 1229,-532 1225,-542 1217,-550 1208,-557 1194,-561 1173,-561 Z"/>
   <glyph unicode="Y" horiz-adv-x="1066" d="M 659,528 L 659,84 877,84 C 897,84 911,80 920,73 929,65 933,55 933,42 933,30 929,20 920,12 911,4 897,0 877,0 L 356,0 C 336,0 322,4 313,12 304,20 300,30 300,42 300,55 304,65 313,73 321,80 335,84 356,84 L 574,84 574,528 205,1086 155,1086 C 135,1086 121,1090 112,1098 103,1105 99,1115 99,1128 99,1141 103,1151 112,1159 121,1166 135,1170 155,1170 L 386,1170 C 406,1170 420,1166 429,1159 438,1151 442,1141 442,1128 442,1115 438,1105 429,1098 420,1090 406,1086 386,1086 L 303,1086 617,613 924,1086 842,1086 C 821,1086 807,1090 798,1098 789,1105 785,1115 785,1128 785,1141 789,1151 798,1159 807,1166 821,1170 842,1170 L 1072,1170 C 1092,1170 1106,1166 1115,1159 1124,1151 1128,1141 1128,1128 1128,1115 1124,1105 1115,1098 1106,1090 1092,1086 1072,1086 L 1022,1086 Z"/>
   <glyph unicode="X" horiz-adv-x="1120" d="M 665,599 L 1064,84 1096,84 C 1116,84 1130,80 1139,73 1148,65 1152,55 1152,42 1152,30 1148,20 1139,12 1130,4 1116,0 1096,0 L 826,0 C 806,0 792,4 783,12 774,20 770,30 770,42 770,55 774,65 783,73 792,80 806,84 826,84 L 960,84 613,530 270,84 404,84 C 424,84 438,80 447,73 456,65 460,55 460,42 460,30 456,20 447,12 438,4 424,0 404,0 L 136,0 C 116,0 102,4 93,12 84,20 80,30 80,42 80,51 83,60 88,67 93,74 99,79 106,81 113,83 133,84 167,84 L 561,599 185,1086 154,1086 C 134,1086 120,1090 111,1098 102,1105 98,1115 98,1128 98,1141 102,1151 111,1159 120,1166 134,1170 154,1170 L 383,1170 C 404,1170 418,1166 427,1159 436,1151 440,1141 440,1128 440,1115 436,1105 427,1098 418,1090 404,1086 383,1086 L 289,1086 613,667 935,1086 841,1086 C 820,1086 806,1090 797,1098 788,1105 784,1115 784,1128 784,1141 788,1151 797,1159 806,1166 820,1170 841,1170 L 1071,1170 C 1091,1170 1105,1166 1114,1159 1123,1151 1127,1141 1127,1128 1127,1115 1123,1105 1114,1098 1105,1090 1091,1086 1071,1086 L 1039,1086 Z"/>
   <glyph unicode="W" horiz-adv-x="1176" d="M 983,0 L 851,0 613,831 380,0 248,0 124,1086 93,1086 C 73,1086 59,1090 50,1098 41,1105 37,1115 37,1128 37,1141 41,1151 50,1159 59,1166 73,1170 93,1170 L 405,1170 C 426,1170 440,1166 449,1159 458,1151 462,1141 462,1128 462,1115 458,1105 449,1098 440,1090 426,1086 405,1086 L 209,1086 320,96 547,911 676,911 909,96 1018,1086 821,1086 C 801,1086 787,1090 778,1098 769,1105 765,1115 765,1128 765,1141 769,1151 778,1159 787,1166 801,1170 821,1170 L 1131,1170 C 1152,1170 1166,1166 1175,1159 1184,1151 1188,1141 1188,1128 1188,1115 1184,1105 1175,1098 1166,1090 1152,1086 1131,1086 L 1100,1086 Z"/>
   <glyph unicode="V" horiz-adv-x="1230" d="M 677,0 L 560,0 137,1086 72,1086 C 57,1086 46,1088 39,1091 32,1094 27,1099 23,1106 18,1113 16,1120 16,1128 16,1136 18,1144 23,1151 27,1158 32,1163 39,1166 46,1169 57,1170 72,1170 L 385,1170 C 401,1170 412,1169 419,1166 425,1163 430,1158 435,1151 439,1144 441,1136 441,1128 441,1120 439,1113 434,1106 429,1099 424,1094 418,1091 411,1088 400,1086 385,1086 L 224,1086 614,84 620,84 1005,1086 845,1086 C 829,1086 818,1088 811,1091 804,1094 799,1099 795,1106 790,1113 788,1120 788,1128 788,1136 790,1144 795,1151 800,1158 805,1163 812,1166 818,1169 829,1170 845,1170 L 1157,1170 C 1173,1170 1184,1169 1191,1166 1198,1163 1203,1158 1208,1151 1212,1144 1214,1136 1214,1128 1214,1120 1212,1113 1207,1106 1202,1099 1197,1094 1191,1091 1184,1088 1173,1086 1157,1086 L 1093,1086 Z"/>
   <glyph unicode="U" horiz-adv-x="1093" d="M 1021,1086 L 1021,384 C 1021,266 982,167 903,87 824,7 729,-33 618,-33 543,-33 477,-17 419,16 361,49 312,98 271,165 230,231 210,304 210,384 L 210,1086 139,1086 C 119,1086 105,1090 96,1098 87,1105 83,1115 83,1128 83,1141 88,1151 97,1160 105,1167 119,1170 139,1170 L 449,1170 C 469,1170 483,1166 492,1159 501,1151 505,1141 505,1128 505,1115 501,1105 492,1098 483,1090 469,1086 449,1086 L 294,1086 294,384 C 294,291 326,213 389,148 452,83 527,51 614,51 669,51 720,64 766,89 811,114 851,153 886,206 920,259 937,318 937,384 L 937,1086 782,1086 C 762,1086 748,1090 739,1098 730,1105 726,1115 726,1128 726,1141 730,1151 739,1159 748,1166 762,1170 782,1170 L 1092,1170 C 1112,1170 1126,1166 1135,1159 1144,1151 1148,1141 1148,1128 1148,1115 1144,1105 1135,1098 1126,1090 1112,1086 1092,1086 Z"/>
   <glyph unicode="T" horiz-adv-x="956" d="M 656,1086 L 656,84 874,84 C 894,84 908,80 917,73 926,65 930,55 930,42 930,30 926,20 917,12 908,4 894,0 874,0 L 353,0 C 333,0 319,4 310,12 301,20 297,30 297,42 297,55 301,65 310,73 319,80 333,84 353,84 L 571,84 571,1086 227,1086 227,795 C 227,774 223,760 216,751 208,742 198,738 185,738 173,738 163,742 155,751 147,760 143,774 143,795 L 143,1170 1084,1170 1084,795 C 1084,774 1080,760 1073,751 1065,742 1055,738 1042,738 1029,738 1019,742 1012,751 1004,760 1000,774 1000,795 L 1000,1086 Z"/>
   <glyph unicode="S" horiz-adv-x="902" d="M 915,1086 L 915,1114 C 915,1134 919,1148 927,1157 934,1166 944,1170 957,1170 970,1170 980,1166 988,1157 995,1148 999,1134 999,1114 L 999,900 C 999,880 995,866 988,857 980,848 970,844 957,844 945,844 935,848 928,856 920,864 916,877 915,895 912,951 883,1001 829,1046 774,1091 703,1113 615,1113 522,1113 449,1089 394,1042 339,994 312,938 312,873 312,840 320,809 335,782 350,755 371,733 396,716 421,699 450,685 482,675 514,664 564,653 632,642 746,623 825,604 868,585 926,559 970,523 1000,477 1029,431 1044,377 1044,314 1044,218 1006,136 929,69 852,1 749,-33 619,-33 473,-33 356,13 269,104 L 269,56 C 269,36 265,22 258,13 250,4 240,0 227,0 215,0 205,4 197,13 189,22 185,36 185,56 L 185,288 C 185,309 189,323 197,332 204,341 214,345 227,345 239,345 249,341 257,333 264,325 268,312 269,294 272,233 305,177 368,127 430,76 514,51 619,51 724,51 808,77 869,130 930,183 960,245 960,317 960,361 948,400 925,435 902,469 867,496 821,516 789,530 722,546 621,563 482,586 381,622 320,670 259,718 228,786 228,875 228,963 263,1039 334,1102 404,1165 497,1197 612,1197 729,1197 830,1160 915,1086 Z"/>
   <glyph unicode="R" horiz-adv-x="1148" d="M 341,522 L 341,84 496,84 C 517,84 531,80 540,73 549,65 553,55 553,42 553,30 549,20 540,12 531,4 517,0 496,0 L 144,0 C 124,0 110,4 101,12 92,20 88,30 88,42 88,55 92,65 101,73 110,80 124,84 144,84 L 257,84 257,1086 144,1086 C 124,1086 110,1090 101,1098 92,1105 88,1115 88,1128 88,1141 92,1151 101,1159 110,1166 124,1170 144,1170 L 652,1170 C 757,1170 845,1137 917,1071 988,1004 1024,929 1024,846 1024,786 1002,730 958,677 913,624 839,579 735,544 795,503 846,456 889,404 932,352 1000,245 1094,84 L 1158,84 C 1178,84 1192,80 1201,73 1210,65 1214,55 1214,42 1214,30 1210,20 1201,12 1192,4 1178,0 1158,0 L 1046,0 C 942,186 862,311 805,374 748,437 682,487 608,522 Z M 341,606 L 570,606 C 643,606 710,619 770,646 829,673 873,704 900,740 927,776 940,813 940,850 940,906 912,959 856,1010 799,1061 731,1086 650,1086 L 341,1086 Z"/>
   <glyph unicode="Q" horiz-adv-x="1066" d="M 626,-33 L 514,-117 C 569,-106 615,-100 651,-100 710,-100 767,-111 824,-132 864,-147 895,-155 917,-155 956,-155 999,-139 1046,-108 1065,-96 1078,-90 1086,-90 1098,-90 1108,-94 1116,-102 1123,-109 1127,-119 1127,-132 1127,-142 1124,-151 1117,-158 1103,-174 1071,-193 1022,-214 985,-231 948,-239 912,-239 884,-239 845,-230 796,-212 747,-194 699,-185 653,-185 620,-185 580,-189 532,-197 465,-208 411,-220 370,-231 357,-234 347,-236 341,-236 330,-236 320,-232 312,-224 304,-216 300,-205 300,-192 300,-179 308,-167 323,-156 L 510,-21 C 399,6 303,75 224,185 144,295 104,427 104,582 104,763 156,910 259,1025 362,1140 481,1197 616,1197 751,1197 871,1140 974,1025 1077,910 1128,763 1128,582 1128,404 1077,258 976,143 875,28 758,-31 626,-33 Z M 1043,582 C 1043,719 1003,841 924,950 845,1059 742,1113 616,1113 498,1113 397,1061 314,958 230,854 188,729 188,582 188,426 232,299 320,200 407,101 506,51 616,51 742,51 845,105 924,214 1003,322 1043,445 1043,582 Z"/>
   <glyph unicode="P" horiz-adv-x="957" d="M 432,480 L 432,84 720,84 C 740,84 754,80 763,73 772,65 776,55 776,42 776,30 772,20 763,12 754,4 740,0 720,0 L 235,0 C 215,0 201,4 192,12 183,20 179,30 179,42 179,55 183,65 192,73 201,80 215,84 235,84 L 348,84 348,1086 235,1086 C 215,1086 201,1090 192,1098 183,1105 179,1115 179,1128 179,1141 183,1151 192,1159 201,1166 215,1170 235,1170 L 723,1170 C 838,1170 933,1136 1006,1068 1079,1000 1115,920 1115,829 1115,775 1103,726 1080,683 1056,640 1027,606 994,581 944,544 892,516 839,499 800,486 752,480 695,480 Z M 432,564 L 700,564 C 762,564 820,578 875,606 929,633 969,667 994,707 1019,747 1031,788 1031,829 1031,895 1003,954 946,1007 889,1060 818,1086 731,1086 L 432,1086 Z"/>
   <glyph unicode="O" horiz-adv-x="1066" d="M 1128,582 C 1128,470 1105,366 1060,271 1015,175 952,100 873,47 793,-6 707,-33 616,-33 481,-33 362,25 259,140 156,255 104,402 104,582 104,763 156,910 259,1025 362,1140 481,1197 616,1197 707,1197 793,1170 872,1117 951,1064 1014,989 1060,894 1105,799 1128,695 1128,582 Z M 1043,582 C 1043,719 1003,841 924,950 845,1059 742,1113 616,1113 498,1113 397,1061 314,958 230,854 188,729 188,582 188,426 232,299 320,200 407,101 506,51 616,51 742,51 845,105 924,214 1003,322 1043,445 1043,582 Z"/>
   <glyph unicode="N" horiz-adv-x="1148" d="M 1026,0 L 918,0 299,1047 299,84 454,84 C 475,84 489,80 498,73 507,65 511,55 511,42 511,30 507,20 498,12 489,4 475,0 454,0 L 145,0 C 124,0 110,4 101,12 92,20 88,30 88,42 88,55 92,65 101,73 110,80 124,84 145,84 L 215,84 215,1086 102,1086 C 82,1086 68,1090 59,1098 50,1105 46,1115 46,1128 46,1141 50,1151 59,1159 68,1166 82,1170 102,1170 L 322,1170 942,121 942,1086 787,1086 C 767,1086 753,1090 744,1098 735,1105 731,1115 731,1128 731,1141 735,1151 744,1159 752,1166 766,1170 787,1170 L 1097,1170 C 1117,1170 1131,1166 1140,1159 1149,1151 1153,1141 1153,1128 1153,1115 1149,1105 1140,1098 1131,1090 1117,1086 1097,1086 L 1026,1086 Z"/>
   <glyph unicode="M" horiz-adv-x="1230" d="M 670,351 L 574,351 251,1086 235,1086 235,84 390,84 C 410,84 424,80 433,73 442,65 446,55 446,42 446,30 442,20 433,12 424,4 410,0 390,0 L 80,0 C 60,0 46,4 37,12 28,20 24,30 24,42 24,55 28,65 37,73 46,80 60,84 80,84 L 151,84 151,1086 98,1086 C 78,1086 64,1090 55,1098 46,1105 42,1115 42,1128 42,1141 46,1151 55,1159 64,1166 78,1170 98,1170 L 304,1170 622,446 935,1170 1141,1170 C 1162,1170 1176,1166 1185,1159 1194,1151 1198,1141 1198,1128 1198,1115 1194,1105 1185,1098 1176,1090 1162,1086 1141,1086 L 1089,1086 1089,84 1159,84 C 1180,84 1194,80 1203,73 1212,65 1216,55 1216,42 1216,30 1212,20 1203,12 1194,4 1180,0 1159,0 L 850,0 C 830,0 816,4 807,12 798,20 793,30 793,42 793,55 797,65 806,73 815,80 829,84 850,84 L 1005,84 1005,1086 987,1086 Z"/>
   <glyph unicode="L" horiz-adv-x="1012" d="M 469,1086 L 469,84 1027,84 1027,418 C 1027,438 1031,452 1039,461 1047,470 1057,474 1070,474 1082,474 1092,470 1100,462 1108,453 1112,439 1112,418 L 1112,0 184,0 C 164,0 150,4 141,12 132,20 128,30 128,42 128,55 132,65 141,73 150,80 164,84 184,84 L 384,84 384,1086 184,1086 C 164,1086 150,1090 141,1098 132,1105 128,1115 128,1128 128,1141 132,1151 141,1159 150,1166 164,1170 184,1170 L 669,1170 C 689,1170 703,1166 712,1159 721,1151 725,1141 725,1128 725,1115 721,1105 712,1098 703,1090 689,1086 669,1086 Z"/>
   <glyph unicode="K" horiz-adv-x="1121" d="M 342,458 L 342,84 497,84 C 518,84 532,80 541,73 550,65 554,55 554,42 554,30 550,20 541,12 532,4 518,0 497,0 L 145,0 C 125,0 111,4 102,12 93,20 89,30 89,42 89,55 93,65 102,73 111,80 125,84 145,84 L 258,84 258,1086 145,1086 C 125,1086 111,1090 102,1098 93,1105 89,1115 89,1128 89,1141 93,1151 102,1159 111,1166 125,1170 145,1170 L 497,1170 C 518,1170 532,1166 541,1159 550,1151 554,1141 554,1128 554,1115 550,1105 541,1098 532,1090 518,1086 497,1086 L 342,1086 342,569 922,1086 830,1086 C 809,1086 795,1090 786,1098 777,1105 773,1115 773,1128 773,1141 777,1151 786,1159 795,1166 809,1170 830,1170 L 1077,1170 C 1097,1170 1111,1166 1120,1159 1129,1151 1133,1141 1133,1128 1133,1115 1129,1105 1120,1098 1111,1090 1097,1086 1077,1086 L 1043,1086 581,673 C 650,645 707,610 752,568 797,526 841,466 883,389 907,346 951,244 1015,84 L 1120,84 C 1141,84 1155,80 1164,73 1173,65 1177,55 1177,42 1177,30 1173,20 1164,12 1155,4 1141,0 1120,0 L 958,0 C 870,241 796,396 736,465 676,534 601,582 511,610 Z"/>
   <glyph unicode="J" horiz-adv-x="1039" d="M 943,1086 L 943,344 C 943,242 905,154 829,79 753,4 662,-33 557,-33 494,-33 432,-19 371,11 310,40 243,87 171,153 L 171,463 C 171,483 175,497 183,506 191,515 201,519 213,519 226,519 236,515 244,506 252,497 256,483 256,463 L 255,193 C 306,146 357,110 408,87 458,63 508,51 557,51 612,51 663,64 712,91 749,111 782,145 813,192 843,239 858,290 858,344 L 858,1086 529,1086 C 508,1086 494,1090 485,1098 476,1105 472,1115 472,1128 472,1141 476,1151 485,1159 494,1166 508,1170 529,1170 L 1143,1170 C 1163,1170 1177,1166 1186,1159 1195,1151 1199,1141 1199,1128 1199,1115 1195,1105 1186,1098 1177,1090 1163,1086 1143,1086 Z"/>
   <glyph unicode="I" horiz-adv-x="794" d="M 657,1086 L 657,84 945,84 C 965,84 979,80 988,73 997,65 1001,55 1001,42 1001,30 997,20 988,12 979,4 965,0 945,0 L 285,0 C 265,0 251,4 242,12 233,20 229,30 229,42 229,55 233,65 242,73 251,80 265,84 285,84 L 573,84 573,1086 285,1086 C 265,1086 251,1090 242,1098 233,1105 229,1115 229,1128 229,1141 233,1151 242,1159 251,1166 265,1170 285,1170 L 945,1170 C 965,1170 979,1166 988,1159 997,1151 1001,1141 1001,1128 1001,1115 997,1105 988,1098 979,1090 965,1086 945,1086 Z"/>
   <glyph unicode="H" horiz-adv-x="1066" d="M 899,566 L 342,566 342,84 455,84 C 475,84 489,80 498,73 507,65 511,55 511,42 511,30 507,20 498,12 489,4 475,0 455,0 L 163,0 C 143,0 129,4 120,12 111,20 107,30 107,42 107,55 111,65 120,73 129,80 143,84 163,84 L 258,84 258,1086 206,1086 C 185,1086 171,1090 162,1098 153,1105 149,1115 149,1128 149,1141 153,1151 162,1159 171,1166 185,1170 206,1170 L 455,1170 C 475,1170 489,1166 498,1159 507,1151 511,1141 511,1128 511,1115 507,1105 498,1098 489,1090 475,1086 455,1086 L 342,1086 342,650 899,650 899,1086 787,1086 C 767,1086 753,1090 744,1098 735,1105 731,1115 731,1128 731,1141 735,1151 744,1159 752,1166 766,1170 787,1170 L 1036,1170 C 1057,1170 1071,1166 1080,1159 1089,1151 1093,1141 1093,1128 1093,1115 1089,1105 1080,1098 1071,1090 1057,1086 1036,1086 L 984,1086 984,84 1079,84 C 1099,84 1113,80 1122,73 1131,65 1135,55 1135,42 1135,30 1131,20 1122,12 1113,4 1099,0 1079,0 L 787,0 C 767,0 753,4 744,12 735,20 731,30 731,42 731,55 735,65 744,73 752,80 766,84 787,84 L 899,84 Z"/>
   <glyph unicode="G" horiz-adv-x="1066" d="M 1071,434 L 1071,74 C 1007,39 943,12 880,-6 816,-24 752,-33 689,-33 599,-33 520,-20 452,7 383,34 325,71 278,119 231,167 194,221 168,280 141,339 128,415 128,506 L 128,660 C 128,752 151,842 197,929 242,1016 305,1082 384,1128 463,1174 550,1197 643,1197 778,1197 893,1160 986,1086 986,1119 987,1138 990,1145 992,1152 997,1158 1004,1163 1011,1168 1020,1170 1029,1170 1041,1170 1051,1166 1059,1157 1067,1148 1071,1134 1071,1114 L 1071,924 C 1071,903 1067,889 1059,881 1051,872 1041,868 1029,868 1018,868 1008,872 1001,880 993,887 989,901 988,920 984,977 947,1023 878,1059 808,1095 732,1113 650,1113 573,1113 503,1096 441,1063 378,1029 320,965 266,870 230,808 212,738 212,659 L 212,506 C 212,367 255,256 340,174 425,92 543,51 693,51 744,51 791,56 834,67 877,78 928,96 986,123 L 986,434 697,434 C 677,434 663,438 654,446 645,453 641,463 641,476 641,489 645,499 654,507 663,515 677,519 697,519 L 1101,518 C 1121,518 1135,514 1144,507 1153,499 1157,489 1157,476 1157,467 1154,459 1149,452 1144,445 1138,440 1131,438 1124,435 1104,434 1071,434 Z"/>
   <glyph unicode="F" horiz-adv-x="1011" d="M 412,565 L 412,84 700,84 C 720,84 734,80 743,73 752,65 756,55 756,42 756,30 752,20 743,12 734,4 720,0 700,0 L 215,0 C 195,0 181,4 172,12 163,20 159,30 159,42 159,55 163,65 172,73 181,80 195,84 215,84 L 328,84 328,1086 215,1086 C 195,1086 181,1090 172,1098 163,1105 159,1115 159,1128 159,1141 164,1151 174,1160 181,1167 195,1170 215,1170 L 1140,1170 1140,881 C 1140,861 1136,847 1128,838 1120,829 1110,825 1098,825 1085,825 1075,829 1067,838 1059,847 1055,861 1055,881 L 1055,1086 412,1086 412,649 713,649 713,744 C 713,764 717,778 725,787 733,796 743,800 756,800 768,800 778,796 786,787 794,778 798,764 798,744 L 798,470 C 798,450 794,436 786,427 778,418 768,414 756,414 743,414 733,418 725,427 717,436 713,450 713,470 L 713,565 Z"/>
   <glyph unicode="E" horiz-adv-x="1011" d="M 341,565 L 341,84 987,84 987,332 C 987,352 991,366 999,375 1006,384 1016,388 1029,388 1042,388 1052,384 1060,375 1067,366 1071,352 1071,332 L 1071,0 144,0 C 124,0 110,4 101,12 92,20 88,30 88,42 88,55 92,65 101,73 110,80 124,84 144,84 L 257,84 257,1086 144,1086 C 124,1086 110,1090 101,1098 92,1105 88,1115 88,1128 88,1141 92,1151 101,1159 110,1166 124,1170 144,1170 L 1027,1170 1027,881 C 1027,861 1023,847 1016,838 1008,829 998,825 985,825 972,825 962,829 955,838 947,847 943,861 943,881 L 943,1086 341,1086 341,649 642,649 642,744 C 642,764 646,778 654,787 662,796 672,800 685,800 697,800 707,796 715,787 723,778 727,764 727,744 L 727,470 C 727,450 723,436 715,427 707,418 697,414 685,414 672,414 662,418 654,427 646,436 642,450 642,470 L 642,565 Z"/>
   <glyph unicode="D" horiz-adv-x="1011" d="M 285,84 L 285,1086 214,1086 C 194,1086 180,1090 171,1098 162,1105 158,1115 158,1128 158,1141 162,1151 171,1159 180,1166 194,1170 214,1170 L 666,1170 C 737,1170 801,1155 860,1126 918,1097 962,1063 993,1026 1046,963 1086,896 1113,825 1132,774 1142,713 1142,643 L 1142,527 C 1142,441 1123,358 1085,277 1047,196 984,126 895,66 829,22 753,0 666,0 L 214,0 C 194,0 180,4 171,12 162,20 158,30 158,42 158,55 162,65 171,73 180,80 194,84 214,84 Z M 369,84 L 674,84 C 745,84 811,107 873,153 934,199 981,254 1012,319 1043,383 1058,446 1058,509 L 1058,661 C 1058,713 1050,759 1033,800 1009,859 975,916 931,969 907,998 872,1025 825,1050 778,1074 728,1086 674,1086 L 369,1086 Z"/>
   <glyph unicode="C" horiz-adv-x="1012" d="M 984,1055 L 984,1114 C 984,1134 988,1148 996,1157 1003,1166 1013,1170 1026,1170 1039,1170 1049,1166 1057,1157 1064,1148 1068,1134 1068,1114 L 1068,881 C 1068,860 1064,846 1057,837 1049,828 1039,824 1026,824 1015,824 1005,828 998,836 990,844 985,857 984,875 981,931 950,981 893,1024 816,1083 728,1113 629,1113 564,1113 503,1099 446,1070 403,1049 369,1024 344,994 300,942 265,884 239,821 220,774 211,722 211,663 L 211,516 C 211,391 256,282 347,190 438,97 543,51 663,51 735,51 800,67 857,98 914,129 969,177 1022,240 1033,254 1046,261 1060,261 1072,261 1082,257 1089,250 1096,243 1100,233 1100,222 1100,207 1086,183 1057,152 1002,91 941,45 873,14 804,-18 735,-33 665,-33 604,-33 543,-21 480,2 432,20 392,41 361,65 330,89 291,130 246,187 200,244 169,296 152,345 135,393 127,446 127,504 L 127,675 C 127,758 149,842 194,929 238,1015 299,1081 376,1128 453,1174 536,1197 626,1197 765,1197 884,1150 984,1055 Z"/>
   <glyph unicode="B" horiz-adv-x="1039" d="M 256,84 L 256,1086 143,1086 C 123,1086 109,1090 100,1098 91,1105 87,1115 87,1128 87,1141 91,1151 100,1159 109,1166 123,1170 143,1170 L 671,1170 C 776,1170 861,1140 927,1080 992,1019 1025,948 1025,867 1025,764 970,681 860,618 947,587 1011,545 1052,493 1093,441 1113,384 1113,321 1113,265 1100,214 1073,168 1046,121 1006,82 951,49 896,16 836,0 771,0 L 143,0 C 123,0 109,4 100,12 91,20 87,30 87,42 87,55 91,65 100,73 109,80 123,84 143,84 Z M 340,650 L 637,650 C 700,650 758,662 811,685 852,704 883,731 906,766 929,801 940,837 940,874 940,927 915,975 866,1020 817,1064 752,1086 673,1086 L 340,1086 Z M 340,84 L 765,84 C 819,84 866,96 906,120 946,144 976,174 997,209 1018,244 1028,281 1028,319 1028,362 1013,403 984,443 954,483 913,513 860,534 807,555 735,565 642,565 L 340,565 Z"/>
   <glyph unicode="A" horiz-adv-x="1230" d="M 891,391 L 339,391 226,84 387,84 C 407,84 421,80 430,73 439,65 443,55 443,42 443,30 439,20 430,12 421,4 407,0 387,0 L 73,0 C 53,0 39,4 30,12 21,20 17,30 17,42 17,55 21,65 30,73 39,80 53,84 73,84 L 138,84 509,1086 261,1086 C 241,1086 227,1090 218,1098 209,1105 205,1115 205,1128 205,1141 209,1151 218,1159 227,1166 241,1170 261,1170 L 684,1170 1094,84 1159,84 C 1179,84 1193,80 1202,73 1211,65 1215,55 1215,42 1215,30 1211,20 1202,12 1193,4 1179,0 1159,0 L 846,0 C 825,0 811,4 802,12 793,20 789,30 789,42 789,55 793,65 802,73 811,80 825,84 846,84 L 1006,84 Z M 859,475 L 627,1086 596,1086 371,475 Z"/>
   <glyph unicode="9" horiz-adv-x="793" d="M 959,710 C 916,633 864,576 805,537 745,498 684,479 621,479 563,479 507,496 453,529 398,562 355,611 323,676 291,740 275,807 275,878 275,981 307,1074 371,1159 434,1243 519,1285 626,1285 702,1285 771,1261 834,1214 897,1167 945,1098 980,1008 1025,893 1047,759 1047,606 1047,487 1028,389 990,310 965,257 928,205 879,155 830,105 774,64 713,33 629,-9 542,-30 451,-30 391,-30 342,-19 304,4 287,15 278,28 278,44 278,55 282,65 290,73 298,80 308,84 319,84 327,84 339,80 354,73 380,60 410,54 444,54 586,54 708,105 810,208 912,310 963,438 963,592 963,620 962,659 959,710 Z M 943,850 C 908,985 864,1078 812,1127 759,1176 698,1200 628,1200 557,1200 494,1170 440,1110 386,1050 359,973 359,879 359,788 386,712 440,653 494,593 555,563 623,563 662,563 701,574 740,595 778,616 814,648 848,691 870,720 902,773 943,850 Z"/>
   <glyph unicode="6" horiz-adv-x="793" d="M 364,531 C 416,608 470,664 525,701 580,738 641,756 708,756 797,756 877,719 946,645 1015,570 1050,478 1050,369 1050,269 1018,178 955,95 892,12 804,-30 693,-30 620,-30 553,-8 490,37 427,82 377,150 341,243 296,358 274,486 274,626 274,731 295,829 337,920 369,990 412,1052 465,1105 518,1158 581,1201 652,1235 723,1268 799,1285 882,1285 938,1285 985,1274 1022,1251 1038,1241 1046,1228 1046,1211 1046,1199 1042,1189 1035,1182 1028,1174 1018,1170 1007,1170 998,1170 988,1173 976,1180 949,1193 915,1200 874,1200 744,1200 626,1144 519,1033 412,921 358,788 358,634 358,612 360,578 364,531 Z M 383,392 C 408,271 448,184 503,132 557,80 621,54 695,54 770,54 834,83 887,142 940,200 966,276 966,369 966,456 939,529 886,586 833,643 772,672 705,672 640,672 578,644 518,589 478,552 433,487 383,392 Z"/>
   <glyph unicode="3" horiz-adv-x="848" d="M 787,683 C 864,648 923,601 964,541 1005,480 1025,417 1025,352 1025,251 984,163 903,86 821,9 719,-30 596,-30 524,-30 449,-15 372,16 295,47 241,78 210,110 200,121 195,132 195,144 195,155 199,164 207,172 214,180 223,184 234,184 245,184 257,179 270,169 373,92 483,54 598,54 695,54 777,85 843,146 908,207 941,274 941,349 941,399 925,448 893,496 860,544 814,582 753,610 692,637 631,651 569,651 549,651 535,655 526,663 517,670 513,680 513,693 513,705 517,715 526,723 534,731 546,735 563,735 L 635,734 C 710,734 773,757 822,803 871,849 895,902 895,963 895,1026 869,1081 818,1129 767,1177 700,1201 617,1201 559,1201 506,1191 457,1171 408,1151 369,1124 340,1089 329,1076 321,1068 316,1065 310,1062 303,1060 296,1060 285,1060 275,1064 267,1072 259,1079 255,1088 255,1099 255,1126 284,1159 342,1200 423,1257 514,1285 617,1285 723,1285 810,1253 878,1190 946,1126 980,1050 980,962 980,906 964,853 931,803 898,753 850,713 787,683 Z"/>
   <glyph unicode="2" horiz-adv-x="820" d="M 253,84 L 898,84 898,117 C 898,137 902,151 910,160 918,169 928,173 941,173 953,173 963,169 971,160 979,151 983,137 983,117 L 983,0 171,0 171,124 C 342,277 508,433 669,592 744,666 796,720 824,755 852,790 871,820 882,847 892,873 897,899 897,926 897,998 868,1062 810,1117 752,1172 682,1200 600,1200 527,1200 462,1179 405,1137 348,1095 312,1043 295,981 291,965 286,955 280,950 272,943 263,940 252,940 241,940 231,944 224,952 216,959 212,968 212,979 212,1011 230,1054 265,1109 300,1164 348,1207 410,1238 471,1269 534,1285 599,1285 704,1285 794,1249 869,1176 944,1103 982,1021 982,929 982,890 976,855 963,823 950,790 929,755 899,717 868,678 814,620 735,543 538,348 377,197 253,90 Z"/>
   <glyph unicode="1" horiz-adv-x="794" d="M 656,1272 L 656,84 944,84 C 964,84 978,80 987,73 996,65 1000,55 1000,42 1000,30 996,20 987,12 978,4 964,0 944,0 L 284,0 C 264,0 250,4 241,12 232,20 228,30 228,42 228,55 232,65 241,73 250,80 264,84 284,84 L 572,84 572,1156 298,1070 C 285,1066 275,1064 269,1064 259,1064 250,1068 242,1077 233,1085 229,1095 229,1106 229,1116 232,1125 239,1134 244,1139 255,1145 272,1151 Z"/>
   <glyph unicode="," horiz-adv-x="465" d="M 448,302 L 721,302 424,-250 C 406,-283 384,-300 359,-300 342,-300 328,-294 317,-283 305,-271 299,-257 299,-240 299,-233 300,-226 302,-218 Z"/>
   <glyph unicode=" " horiz-adv-x="1229"/>
  </font>
 </defs>
 <defs>
  <font id="EmbeddedFont_2" horiz-adv-x="2048">
   <font-face font-family="Courier New embedded" units-per-em="2048" font-weight="bold" font-style="normal" ascent="1693" descent="628"/>
   <missing-glyph horiz-adv-x="2048" d="M 0,0 L 2047,0 2047,2047 0,2047 0,0 Z"/>
   <glyph unicode="t" horiz-adv-x="1093" d="M 564,703 L 564,292 C 564,248 573,219 591,205 619,183 669,172 741,172 846,172 942,194 1031,239 1065,256 1092,265 1111,265 1138,265 1161,255 1181,235 1200,215 1210,191 1210,162 1210,135 1199,112 1178,93 1145,62 1081,33 985,7 888,-20 807,-33 741,-33 614,-33 518,-6 455,50 391,105 359,172 359,252 L 359,703 285,703 C 236,703 201,713 180,732 159,751 148,775 148,806 148,836 159,861 180,880 201,899 236,908 285,908 L 359,908 359,1093 C 359,1142 369,1178 388,1199 407,1220 431,1230 462,1230 492,1230 517,1220 536,1199 555,1178 564,1142 564,1093 L 564,908 943,908 C 992,908 1028,899 1049,880 1070,861 1080,836 1080,805 1080,775 1070,751 1049,732 1028,713 992,703 943,703 Z"/>
   <glyph unicode="s" horiz-adv-x="956" d="M 836,668 C 803,689 768,704 731,715 694,725 656,730 616,730 537,730 474,717 427,691 406,680 396,667 396,654 396,639 410,624 438,609 459,598 507,588 581,578 717,559 812,541 865,522 935,497 989,461 1027,412 1065,363 1084,312 1084,258 1084,185 1052,123 987,74 894,3 774,-33 626,-33 567,-33 512,-28 462,-18 411,-7 365,8 323,28 313,19 302,13 291,8 280,3 268,1 256,1 224,1 199,12 180,33 161,54 151,89 151,138 L 151,207 C 151,256 161,292 180,313 199,334 223,344 254,344 279,344 299,337 316,324 333,310 346,286 355,253 386,226 424,206 468,193 512,179 563,172 620,172 714,172 787,187 839,216 864,231 876,246 876,262 876,289 858,311 823,328 788,345 715,360 604,372 439,389 329,423 274,472 219,521 191,581 191,652 191,725 222,786 284,835 368,902 478,935 614,935 661,935 707,931 751,922 794,913 836,899 876,880 889,889 901,896 912,901 923,906 933,908 942,908 970,908 993,898 1012,877 1031,856 1040,820 1040,771 L 1040,721 C 1040,676 1035,646 1024,630 1003,599 974,584 937,584 912,584 891,592 872,607 853,622 841,643 836,668 Z"/>
   <glyph unicode="r" horiz-adv-x="1093" d="M 572,908 L 572,780 C 658,842 726,883 776,904 825,925 872,935 915,935 982,935 1046,910 1109,861 1152,828 1173,794 1173,759 1173,730 1163,705 1143,685 1122,664 1098,654 1069,654 1044,654 1017,667 989,692 961,717 936,730 914,730 885,730 843,712 786,676 729,640 657,586 572,514 L 572,205 864,205 C 913,205 949,196 970,177 991,158 1001,133 1001,102 1001,72 991,48 970,29 949,10 913,0 864,0 L 245,0 C 196,0 161,10 140,29 119,48 108,72 108,103 108,133 119,158 140,177 161,196 196,205 245,205 L 367,205 367,703 293,703 C 244,703 209,713 188,732 167,751 156,775 156,806 156,836 167,861 188,880 209,899 244,908 293,908 Z"/>
   <glyph unicode="p" horiz-adv-x="1202" d="M 360,113 L 360,-223 483,-223 C 532,-223 568,-233 589,-252 610,-271 620,-295 620,-326 620,-356 610,-381 589,-400 568,-419 532,-428 483,-428 L 120,-428 C 71,-428 36,-419 15,-400 -7,-381 -17,-356 -17,-326 -17,-295 -6,-271 15,-252 36,-233 71,-223 120,-223 L 155,-223 155,703 120,703 C 71,703 36,713 15,732 -7,751 -17,775 -17,806 -17,836 -7,861 15,880 36,899 71,908 120,908 L 360,908 360,838 C 408,871 458,895 509,911 560,927 613,935 667,935 807,935 926,888 1025,793 1124,698 1173,589 1173,466 1173,331 1115,219 998,131 901,58 791,21 669,21 616,21 564,29 513,44 462,59 411,82 360,113 Z M 968,465 C 968,494 957,530 934,575 911,619 877,656 830,686 783,715 727,730 664,730 562,730 481,692 421,615 380,562 360,512 360,463 360,408 389,355 448,304 506,252 578,226 664,226 751,226 823,252 881,303 939,354 968,408 968,465 Z"/>
   <glyph unicode="o" horiz-adv-x="1066" d="M 1147,437 C 1147,358 1125,282 1082,209 1038,135 973,76 887,33 800,-11 710,-33 616,-33 523,-33 433,-12 348,32 263,75 198,133 153,207 108,281 86,358 86,439 86,521 109,602 154,681 199,760 265,822 350,867 435,912 523,935 616,935 709,935 799,912 886,866 972,819 1037,757 1081,679 1125,600 1147,520 1147,437 Z M 942,436 C 942,502 918,563 871,618 806,693 721,730 616,730 523,730 446,700 384,641 322,582 291,513 291,435 291,371 322,311 385,256 448,200 525,172 616,172 708,172 785,200 848,256 911,311 942,371 942,436 Z"/>
   <glyph unicode="n" horiz-adv-x="1176" d="M 407,908 L 407,839 C 444,871 486,895 531,911 576,927 624,935 677,935 798,935 894,897 965,822 1021,762 1049,683 1049,586 L 1049,205 C 1092,205 1124,196 1145,177 1166,158 1176,133 1176,102 1176,72 1166,48 1145,29 1124,10 1088,0 1039,0 L 854,0 C 805,0 770,10 749,29 728,48 717,72 717,103 717,133 727,158 748,177 769,196 801,205 844,205 L 844,592 C 844,637 832,669 808,690 777,717 730,730 667,730 620,730 578,721 543,703 507,684 462,645 407,586 L 407,205 C 460,205 494,200 509,190 542,170 558,141 558,102 558,72 548,48 527,29 506,10 470,0 421,0 L 188,0 C 139,0 104,10 83,29 62,48 51,72 51,103 51,140 67,169 99,190 115,200 149,205 202,205 L 202,703 C 159,703 127,713 106,732 85,751 75,776 75,806 75,836 86,861 107,880 128,899 163,908 212,908 Z"/>
   <glyph unicode="m" horiz-adv-x="1340" d="M 298,908 L 298,850 C 331,883 362,905 389,918 416,930 447,936 482,936 512,936 542,929 571,914 600,899 629,877 657,848 692,877 728,899 765,914 801,928 838,935 876,935 952,935 1014,915 1061,874 1124,821 1155,751 1155,664 L 1155,205 C 1198,205 1229,195 1250,176 1271,157 1281,132 1281,102 1281,72 1271,48 1250,29 1229,10 1194,0 1145,0 L 950,0 950,647 C 950,678 944,700 933,712 922,724 904,730 881,730 858,730 837,724 818,712 793,695 763,664 728,618 L 728,205 C 771,205 802,195 823,176 844,157 854,132 854,102 854,72 844,48 823,29 802,10 767,0 718,0 L 523,0 523,647 C 523,678 517,699 506,712 494,724 476,730 453,730 429,730 405,723 382,708 359,693 331,663 298,618 L 298,205 C 341,205 373,195 394,176 415,157 425,132 425,102 425,72 415,48 394,29 373,10 337,0 288,0 L 103,0 C 54,0 19,10 -3,29 -24,48 -34,72 -34,103 -34,133 -24,158 -3,177 18,196 50,205 93,205 L 93,703 C 50,703 18,713 -3,732 -24,751 -34,776 -34,806 -34,836 -24,861 -3,880 19,899 54,908 103,908 Z"/>
   <glyph unicode="l" horiz-adv-x="1012" d="M 717,1297 L 717,205 963,205 C 1012,205 1048,196 1069,177 1090,158 1100,133 1100,102 1100,72 1090,48 1069,29 1048,10 1012,0 963,0 L 266,0 C 217,0 182,10 161,29 140,48 129,72 129,103 129,133 140,158 161,177 182,196 217,205 266,205 L 512,205 512,1092 347,1092 C 298,1092 263,1102 242,1121 221,1140 210,1164 210,1195 210,1225 221,1250 242,1269 263,1288 298,1297 347,1297 Z"/>
   <glyph unicode="i" horiz-adv-x="1012" d="M 688,1297 L 688,1080 444,1080 444,1297 Z M 716,908 L 716,205 962,205 C 1011,205 1047,196 1068,177 1089,158 1099,133 1099,102 1099,72 1089,48 1068,29 1047,10 1011,0 962,0 L 265,0 C 216,0 181,10 160,29 139,48 128,72 128,103 128,133 139,158 160,177 181,196 216,205 265,205 L 511,205 511,703 346,703 C 297,703 262,713 241,732 220,751 209,775 209,806 209,836 220,861 241,880 262,899 297,908 346,908 Z"/>
   <glyph unicode="h" horiz-adv-x="1203" d="M 403,1297 L 403,860 C 446,885 489,904 533,917 576,929 620,935 665,935 736,935 799,923 854,899 909,875 955,837 992,786 1028,734 1046,669 1046,590 L 1046,205 C 1098,205 1132,200 1148,190 1180,169 1196,140 1196,102 1196,72 1186,48 1165,29 1144,10 1109,0 1060,0 L 826,0 C 777,0 743,10 722,29 701,48 690,72 690,103 690,140 706,169 738,190 755,201 789,206 840,205 L 840,576 C 840,629 828,666 804,687 773,716 726,730 665,730 620,730 580,721 545,704 510,686 462,648 403,589 L 403,205 C 456,205 490,200 505,190 538,169 554,140 554,102 554,72 544,48 523,29 502,10 466,0 417,0 L 184,0 C 135,0 100,10 79,29 58,48 47,72 47,103 47,140 63,169 96,190 112,201 146,206 198,205 L 198,1092 163,1092 C 114,1092 79,1102 58,1121 37,1140 26,1164 26,1195 26,1225 37,1250 58,1269 79,1288 114,1297 163,1297 Z"/>
   <glyph unicode="g" horiz-adv-x="1175" d="M 840,847 L 840,908 1080,908 C 1129,908 1165,899 1186,880 1207,861 1217,836 1217,805 1217,775 1207,751 1186,732 1165,713 1129,703 1080,703 L 1045,703 1045,-43 C 1045,-115 1030,-178 1000,-232 969,-285 923,-331 860,-370 797,-409 727,-428 648,-428 L 416,-428 C 367,-428 332,-419 311,-400 290,-381 279,-356 279,-326 279,-295 290,-271 311,-252 332,-233 367,-223 416,-223 L 642,-223 C 705,-223 753,-206 788,-172 823,-138 840,-95 840,-43 L 840,57 C 795,28 749,6 702,-9 655,-24 606,-31 557,-31 418,-31 301,16 207,109 113,202 66,316 66,453 66,590 113,706 207,799 301,892 418,938 557,938 609,938 659,931 706,916 753,901 797,878 840,847 Z M 839,454 C 839,529 811,595 756,650 700,705 633,733 555,733 477,733 410,705 355,650 299,595 271,529 271,454 271,378 299,313 355,258 410,203 477,175 555,175 633,175 700,203 756,258 811,313 839,378 839,454 Z"/>
   <glyph unicode="f" horiz-adv-x="1038" d="M 613,703 L 613,205 905,205 C 954,205 990,196 1011,177 1032,158 1042,133 1042,102 1042,72 1032,48 1011,29 990,10 954,0 905,0 L 286,0 C 237,0 202,10 181,29 160,48 149,72 149,103 149,133 160,158 181,177 202,196 237,205 286,205 L 408,205 408,703 310,703 C 261,703 226,713 205,732 184,751 173,775 173,806 173,836 184,861 205,880 226,899 261,908 310,908 L 408,908 408,986 C 408,1075 442,1150 509,1209 576,1268 673,1297 800,1297 857,1297 922,1292 997,1282 1071,1271 1119,1257 1140,1238 1161,1219 1171,1195 1171,1166 1171,1135 1162,1109 1143,1090 1124,1070 1101,1060 1074,1060 1061,1060 1042,1062 1017,1067 932,1084 857,1092 792,1092 724,1092 677,1082 652,1062 626,1041 613,1016 613,986 L 613,908 929,908 C 978,908 1014,899 1035,880 1056,861 1066,836 1066,805 1066,775 1056,751 1035,732 1014,713 978,703 929,703 Z"/>
   <glyph unicode="d" horiz-adv-x="1230" d="M 1085,1297 L 1085,205 1120,205 C 1169,205 1204,196 1225,177 1246,158 1257,133 1257,102 1257,72 1247,48 1226,29 1205,10 1169,0 1120,0 L 880,0 880,50 C 833,23 785,2 734,-12 683,-26 630,-33 575,-33 421,-33 297,12 203,101 109,190 62,300 62,433 62,572 111,690 210,788 309,886 429,935 571,935 624,935 677,927 728,911 779,894 830,870 880,837 L 880,1092 845,1092 C 796,1092 761,1102 740,1121 719,1140 708,1164 708,1194 708,1225 719,1250 740,1269 761,1288 796,1297 845,1297 Z M 880,427 C 880,512 850,583 791,642 732,701 659,730 573,730 488,730 415,701 356,642 297,583 267,513 267,430 267,355 294,293 347,245 400,196 476,172 573,172 670,172 745,196 799,245 853,293 880,354 880,427 Z"/>
   <glyph unicode="c" horiz-adv-x="1066" d="M 934,871 C 959,894 984,906 1010,906 1039,906 1064,896 1083,875 1102,854 1111,819 1111,770 L 1111,638 C 1111,589 1102,554 1083,533 1064,512 1039,502 1008,502 980,502 956,510 937,526 923,538 912,563 904,600 896,637 877,664 846,682 792,714 723,730 639,730 542,730 465,702 407,645 348,588 319,517 319,430 319,350 347,287 403,241 459,194 552,171 682,171 767,171 837,180 891,197 923,208 953,226 982,252 1011,277 1037,290 1060,290 1088,290 1112,280 1133,259 1153,238 1163,214 1163,186 1163,141 1132,98 1070,57 978,-4 843,-34 666,-34 507,-34 383,-1 294,65 174,154 114,275 114,429 114,575 163,696 260,792 357,887 484,935 641,935 698,935 750,930 799,919 848,908 893,892 934,871 Z"/>
   <glyph unicode="a" horiz-adv-x="1121" d="M 799,0 L 799,48 C 748,21 691,0 629,-14 567,-27 511,-34 460,-34 350,-34 261,-5 192,54 123,112 89,176 89,247 89,333 133,413 221,487 308,560 429,597 584,597 646,597 718,590 799,577 L 799,626 C 799,657 786,682 760,701 733,720 683,730 609,730 548,730 470,718 373,694 337,685 309,681 289,681 262,681 239,691 220,711 201,730 191,755 191,786 191,803 194,818 201,831 208,844 217,854 229,862 241,869 266,878 304,889 355,903 406,914 459,923 512,931 559,935 602,935 729,935 828,908 899,853 969,798 1004,722 1004,627 L 1004,205 1039,205 C 1088,205 1124,196 1145,177 1166,158 1176,133 1176,102 1176,72 1166,48 1145,29 1124,10 1088,0 1039,0 Z M 799,367 C 717,383 641,391 572,391 489,391 417,371 357,330 320,304 301,278 301,251 301,232 310,216 328,204 361,182 407,171 465,171 514,171 570,181 633,200 695,219 750,246 799,279 Z"/>
   <glyph unicode="_" horiz-adv-x="1421" d="M 1182,-615 L 56,-615 C 7,-615 -29,-606 -50,-587 -71,-568 -81,-544 -81,-513 -81,-482 -71,-458 -50,-439 -29,-420 7,-410 56,-410 L 1182,-410 C 1231,-410 1266,-420 1287,-439 1308,-458 1318,-482 1318,-513 1318,-543 1308,-568 1287,-587 1266,-606 1231,-615 1182,-615 Z"/>
   <glyph unicode="9" horiz-adv-x="930" d="M 903,538 C 852,494 805,463 762,445 719,426 674,417 627,417 517,417 421,461 339,549 256,637 215,746 215,877 215,979 243,1072 300,1155 377,1270 486,1327 627,1327 728,1327 816,1297 891,1237 966,1176 1022,1089 1057,976 1092,862 1110,743 1110,620 1110,411 1029,243 867,116 742,19 604,-30 455,-30 372,-30 308,-13 263,20 232,42 217,71 217,107 217,136 227,161 247,181 266,200 290,210 319,210 335,210 353,205 373,195 399,182 426,175 455,175 558,175 654,210 741,281 828,351 882,437 903,538 Z M 874,861 C 852,956 820,1023 777,1063 734,1102 684,1122 629,1122 571,1122 522,1100 481,1056 440,1011 420,952 420,879 420,802 441,740 482,693 523,646 569,622 622,622 715,622 799,702 874,861 Z"/>
   <glyph unicode="6" horiz-adv-x="930" d="M 422,700 C 471,741 518,772 563,791 608,810 655,819 706,819 813,819 907,776 988,691 1069,606 1109,499 1109,370 1109,251 1072,154 997,81 922,7 820,-30 691,-30 584,-30 495,-5 426,45 357,95 304,172 269,276 234,380 216,496 216,624 216,777 251,905 321,1007 391,1108 473,1187 568,1243 663,1299 763,1327 868,1327 951,1327 1016,1311 1062,1278 1092,1256 1107,1228 1107,1194 1107,1164 1097,1139 1077,1119 1057,1098 1033,1088 1005,1088 989,1088 966,1096 936,1112 918,1121 901,1126 884,1126 819,1126 751,1108 681,1071 611,1034 550,977 499,900 464,847 438,780 422,700 Z M 452,383 C 473,303 502,248 539,219 575,190 627,175 694,175 761,175 813,193 850,228 886,263 904,311 904,372 904,441 883,499 842,545 800,591 753,614 701,614 660,614 616,594 569,553 522,512 483,456 452,383 Z"/>
   <glyph unicode="3" horiz-adv-x="984" d="M 907,685 C 968,644 1013,596 1043,542 1073,487 1088,426 1088,359 1088,286 1068,219 1029,158 989,96 931,49 856,18 781,-14 682,-30 560,-30 401,-30 282,-5 202,44 157,72 135,105 135,144 135,173 145,198 165,219 184,239 208,249 236,249 255,249 275,242 296,229 325,209 353,196 379,189 419,180 474,175 544,175 663,175 750,191 803,222 856,253 883,296 883,353 883,395 868,436 837,475 806,514 764,544 712,565 682,577 631,585 560,590 526,592 500,603 482,622 463,641 454,664 454,692 454,721 464,746 484,766 504,786 529,796 560,796 628,796 664,796 669,797 696,800 722,808 749,823 776,838 797,858 814,884 830,909 838,936 838,963 838,1006 819,1044 781,1076 742,1107 685,1123 608,1123 509,1123 434,1094 382,1037 367,1020 354,1010 345,1005 331,998 315,994 298,994 270,994 246,1004 226,1024 206,1044 196,1069 196,1098 196,1144 227,1189 288,1232 377,1295 489,1327 623,1327 750,1327 851,1291 928,1219 1005,1147 1043,1060 1043,959 1043,906 1032,857 1009,812 986,766 952,724 907,685 Z"/>
   <glyph unicode="1" horiz-adv-x="902" d="M 719,1327 L 719,205 926,205 C 975,205 1011,196 1032,177 1053,158 1063,133 1063,102 1063,72 1053,48 1032,29 1011,10 975,0 926,0 L 307,0 C 258,0 223,10 202,29 181,48 170,72 170,103 170,133 181,158 202,177 223,196 258,205 307,205 L 514,205 514,1060 331,1012 C 302,1004 280,1000 265,1000 239,1000 217,1010 198,1031 179,1052 169,1077 169,1107 169,1134 176,1156 190,1172 204,1187 233,1201 278,1213 Z"/>
   <glyph unicode="." horiz-adv-x="356" d="M 771,103 C 771,64 757,32 730,6 703,-20 665,-33 617,-33 569,-33 531,-20 504,6 477,32 463,64 463,103 463,142 477,174 504,200 531,226 569,239 617,239 665,239 703,226 730,200 757,174 771,142 771,103 Z"/>
  </font>
 </defs>
 <defs>
  <font id="EmbeddedFont_3" horiz-adv-x="2048">
   <font-face font-family="Liberation Sans embedded" units-per-em="2048" font-weight="normal" font-style="normal" ascent="1857" descent="437"/>
   <missing-glyph horiz-adv-x="2048" d="M 0,0 L 2047,0 2047,2047 0,2047 0,0 Z"/>
   <glyph unicode="y" horiz-adv-x="1039" d="M 191,-425 C 142,-425 100,-421 67,-414 L 67,-279 C 92,-283 120,-285 151,-285 263,-285 352,-203 417,-38 L 434,5 5,1082 197,1082 425,484 C 428,475 432,464 437,451 442,438 457,394 482,320 507,246 521,205 523,196 L 593,393 830,1082 1020,1082 604,0 C 559,-115 518,-201 479,-258 440,-314 398,-356 351,-384 304,-411 250,-425 191,-425 Z"/>
   <glyph unicode="x" horiz-adv-x="1012" d="M 801,0 L 510,444 217,0 23,0 408,556 41,1082 240,1082 510,661 778,1082 979,1082 612,558 1002,0 Z"/>
   <glyph unicode="v" horiz-adv-x="1039" d="M 613,0 L 400,0 7,1082 199,1082 437,378 C 446,351 469,272 506,141 L 541,258 580,376 826,1082 1017,1082 Z"/>
   <glyph unicode="r" horiz-adv-x="547" d="M 142,0 L 142,830 C 142,906 140,990 136,1082 L 306,1082 C 311,959 314,886 314,861 L 318,861 C 347,954 380,1017 417,1051 454,1085 507,1102 575,1102 599,1102 623,1099 648,1092 L 648,927 C 624,934 592,937 552,937 477,937 420,905 381,841 342,776 322,684 322,564 L 322,0 Z"/>
   <glyph unicode="o" horiz-adv-x="984" d="M 1053,542 C 1053,353 1011,212 928,119 845,26 724,-20 565,-20 407,-20 288,28 207,125 126,221 86,360 86,542 86,915 248,1102 571,1102 736,1102 858,1057 936,966 1014,875 1053,733 1053,542 Z M 864,542 C 864,691 842,800 798,868 753,935 679,969 574,969 469,969 393,935 346,866 299,797 275,689 275,542 275,399 298,292 345,221 391,149 464,113 563,113 671,113 748,148 795,217 841,286 864,395 864,542 Z"/>
   <glyph unicode="n" horiz-adv-x="903" d="M 825,0 L 825,686 C 825,757 818,813 804,852 790,891 768,920 737,937 706,954 661,963 602,963 515,963 447,933 397,874 347,815 322,732 322,627 L 322,0 142,0 142,851 C 142,977 140,1054 136,1082 L 306,1082 C 307,1079 307,1070 308,1055 309,1040 310,1024 311,1005 312,986 313,950 314,897 L 317,897 C 358,972 406,1025 461,1056 515,1087 582,1102 663,1102 782,1102 869,1073 924,1014 979,955 1006,857 1006,721 L 1006,0 Z"/>
   <glyph unicode="l" horiz-adv-x="192" d="M 138,0 L 138,1484 318,1484 318,0 Z"/>
   <glyph unicode="i" horiz-adv-x="192" d="M 137,1312 L 137,1484 317,1484 317,1312 Z M 137,0 L 137,1082 317,1082 317,0 Z"/>
   <glyph unicode="g" horiz-adv-x="930" d="M 548,-425 C 430,-425 336,-402 266,-356 196,-309 151,-243 131,-158 L 312,-132 C 324,-182 351,-221 392,-248 433,-275 486,-288 553,-288 732,-288 822,-183 822,27 L 822,201 820,201 C 786,132 739,80 680,45 621,10 551,-8 472,-8 339,-8 242,36 180,124 117,212 86,350 86,539 86,730 120,872 187,963 254,1054 355,1099 492,1099 569,1099 635,1082 692,1047 748,1012 791,962 822,897 L 824,897 C 824,917 825,952 828,1001 831,1050 833,1077 836,1082 L 1007,1082 C 1003,1046 1001,971 1001,858 L 1001,31 C 1001,-273 850,-425 548,-425 Z M 822,541 C 822,629 810,705 786,769 762,832 728,881 685,915 641,948 591,965 536,965 444,965 377,932 335,865 293,798 272,690 272,541 272,393 292,287 331,222 370,157 438,125 533,125 590,125 640,142 684,175 728,208 762,256 786,319 810,381 822,455 822,541 Z"/>
   <glyph unicode="f" horiz-adv-x="548" d="M 361,951 L 361,0 181,0 181,951 29,951 29,1082 181,1082 181,1204 C 181,1303 203,1374 246,1417 289,1460 356,1482 445,1482 495,1482 537,1478 572,1470 L 572,1333 C 542,1338 515,1341 492,1341 446,1341 413,1329 392,1306 371,1283 361,1240 361,1179 L 361,1082 572,1082 572,951 Z"/>
   <glyph unicode="e" horiz-adv-x="984" d="M 276,503 C 276,379 302,283 353,216 404,149 479,115 578,115 656,115 719,131 766,162 813,193 844,233 861,281 L 1019,236 C 954,65 807,-20 578,-20 418,-20 296,28 213,123 129,218 87,360 87,548 87,727 129,864 213,959 296,1054 416,1102 571,1102 889,1102 1048,910 1048,527 L 1048,503 Z M 862,641 C 852,755 823,838 775,891 727,943 658,969 568,969 481,969 412,940 361,882 310,823 282,743 278,641 Z"/>
   <glyph unicode="a" horiz-adv-x="1066" d="M 414,-20 C 305,-20 224,9 169,66 114,123 87,202 87,302 87,414 124,500 198,560 271,620 390,652 554,656 L 797,660 797,719 C 797,807 778,870 741,908 704,946 645,965 565,965 484,965 426,951 389,924 352,897 330,853 323,793 L 135,810 C 166,1005 310,1102 569,1102 705,1102 807,1071 876,1009 945,946 979,856 979,738 L 979,272 C 979,219 986,179 1000,152 1014,125 1041,111 1080,111 1097,111 1117,113 1139,118 L 1139,6 C 1094,-5 1047,-10 1000,-10 933,-10 885,8 855,43 824,78 807,132 803,207 L 797,207 C 751,124 698,66 637,32 576,-3 501,-20 414,-20 Z M 455,115 C 521,115 580,130 631,160 682,190 723,231 753,284 782,336 797,390 797,445 L 797,534 600,530 C 515,529 451,520 408,504 364,488 330,463 307,430 284,397 272,353 272,299 272,240 288,195 320,163 351,131 396,115 455,115 Z"/>
   <glyph unicode="T" horiz-adv-x="1203" d="M 720,1253 L 720,0 530,0 530,1253 46,1253 46,1409 1204,1409 1204,1253 Z"/>
   <glyph unicode="S" horiz-adv-x="1203" d="M 1272,389 C 1272,259 1221,158 1120,87 1018,16 875,-20 690,-20 347,-20 148,99 93,338 L 278,375 C 299,290 345,228 414,189 483,149 578,129 697,129 820,129 916,150 983,193 1050,235 1083,297 1083,379 1083,425 1073,462 1052,491 1031,520 1001,543 963,562 925,581 880,596 827,609 774,622 716,635 652,650 541,675 456,699 399,724 341,749 295,776 262,807 229,837 203,872 186,913 168,954 159,1000 159,1053 159,1174 205,1267 298,1332 390,1397 522,1430 694,1430 854,1430 976,1406 1061,1357 1146,1308 1205,1224 1239,1106 L 1051,1073 C 1030,1148 991,1202 933,1236 875,1269 795,1286 692,1286 579,1286 493,1267 434,1230 375,1193 345,1137 345,1063 345,1020 357,984 380,956 403,927 436,903 479,884 522,864 609,840 738,811 781,801 825,791 868,781 911,770 952,758 991,744 1030,729 1067,712 1102,693 1136,674 1166,650 1191,622 1216,594 1236,561 1251,523 1265,485 1272,440 1272,389 Z"/>
   <glyph unicode="P" horiz-adv-x="1121" d="M 1258,985 C 1258,852 1215,746 1128,667 1041,588 922,549 773,549 L 359,549 359,0 168,0 168,1409 761,1409 C 919,1409 1041,1372 1128,1298 1215,1224 1258,1120 1258,985 Z M 1066,983 C 1066,1165 957,1256 738,1256 L 359,1256 359,700 746,700 C 959,700 1066,794 1066,983 Z"/>
   <glyph unicode="D" horiz-adv-x="1230" d="M 1381,719 C 1381,574 1353,447 1296,338 1239,229 1159,145 1055,87 951,29 831,0 695,0 L 168,0 168,1409 634,1409 C 873,1409 1057,1349 1187,1230 1316,1110 1381,940 1381,719 Z M 1189,719 C 1189,894 1141,1027 1046,1119 950,1210 811,1256 630,1256 L 359,1256 359,153 673,153 C 776,153 867,176 946,221 1024,266 1084,332 1126,417 1168,502 1189,603 1189,719 Z"/>
   <glyph unicode="C" horiz-adv-x="1339" d="M 792,1274 C 636,1274 515,1224 428,1124 341,1023 298,886 298,711 298,538 343,400 434,295 524,190 646,137 800,137 997,137 1146,235 1245,430 L 1401,352 C 1343,231 1262,138 1157,75 1052,12 930,-20 791,-20 649,-20 526,10 423,69 319,128 240,212 186,322 131,431 104,561 104,711 104,936 165,1112 286,1239 407,1366 575,1430 790,1430 940,1430 1065,1401 1166,1342 1267,1283 1341,1196 1388,1081 L 1207,1021 C 1174,1103 1122,1166 1050,1209 977,1252 891,1274 792,1274 Z"/>
   <glyph unicode="A" horiz-adv-x="1367" d="M 1167,0 L 1006,412 364,412 202,0 4,0 579,1409 796,1409 1362,0 Z M 685,1265 L 676,1237 C 659,1182 635,1111 602,1024 L 422,561 949,561 768,1026 C 749,1072 731,1124 712,1182 Z"/>
   <glyph unicode=":" horiz-adv-x="219" d="M 187,875 L 187,1082 382,1082 382,875 Z M 187,0 L 187,207 382,207 382,0 Z"/>
   <glyph unicode="9" horiz-adv-x="984" d="M 1042,733 C 1042,491 998,305 910,175 821,45 695,-20 532,-20 422,-20 334,3 268,50 201,96 154,171 125,274 L 297,301 C 333,184 412,125 535,125 638,125 718,173 775,269 832,365 861,502 864,680 837,620 792,572 727,536 662,499 591,481 514,481 387,481 286,524 210,611 134,698 96,813 96,956 96,1103 137,1219 220,1304 303,1388 418,1430 565,1430 722,1430 840,1372 921,1256 1002,1140 1042,966 1042,733 Z M 846,907 C 846,1020 820,1112 768,1181 716,1250 646,1284 559,1284 472,1284 404,1255 354,1196 304,1137 279,1057 279,956 279,853 304,772 354,713 404,653 472,623 557,623 609,623 657,635 702,659 747,682 782,716 808,759 833,802 846,852 846,907 Z"/>
   <glyph unicode="6" horiz-adv-x="984" d="M 1049,461 C 1049,312 1009,195 928,109 847,23 736,-20 594,-20 435,-20 314,39 230,157 146,275 104,447 104,672 104,916 148,1103 235,1234 322,1365 447,1430 608,1430 821,1430 955,1334 1010,1143 L 838,1112 C 803,1227 725,1284 606,1284 503,1284 424,1236 368,1141 311,1045 283,906 283,725 316,786 362,832 421,864 480,895 548,911 625,911 755,911 858,870 935,789 1011,708 1049,598 1049,461 Z M 866,453 C 866,555 841,634 791,689 741,744 671,772 582,772 498,772 430,748 379,699 327,650 301,582 301,496 301,387 328,298 382,229 435,160 504,125 588,125 675,125 743,154 792,213 841,271 866,351 866,453 Z"/>
   <glyph unicode="3" horiz-adv-x="1011" d="M 1049,389 C 1049,259 1008,158 925,87 842,16 724,-20 571,-20 428,-20 315,12 230,77 145,141 94,236 78,362 L 264,379 C 288,212 390,129 571,129 662,129 733,151 785,196 836,241 862,307 862,395 862,472 833,532 774,575 715,618 629,639 518,639 L 416,639 416,795 514,795 C 613,795 689,817 744,860 798,903 825,962 825,1038 825,1113 803,1173 759,1217 714,1260 648,1282 561,1282 482,1282 418,1262 369,1221 320,1180 291,1123 283,1049 L 102,1063 C 115,1178 163,1268 246,1333 328,1398 434,1430 563,1430 704,1430 814,1397 893,1332 971,1266 1010,1174 1010,1057 1010,967 985,894 935,838 884,781 811,743 715,723 L 715,719 C 820,708 902,672 961,613 1020,554 1049,479 1049,389 Z"/>
   <glyph unicode="1" horiz-adv-x="929" d="M 156,0 L 156,153 515,153 515,1237 197,1010 197,1180 530,1409 696,1409 696,153 1039,153 1039,0 Z"/>
   <glyph unicode=" " horiz-adv-x="574"/>
  </font>
 </defs>
 <defs>
  <font id="EmbeddedFont_4" horiz-adv-x="2048">
   <font-face font-family="Liberation Sans embedded" units-per-em="2048" font-weight="normal" font-style="italic" ascent="1857" descent="437"/>
   <missing-glyph horiz-adv-x="2048" d="M 0,0 L 2047,0 2047,2047 0,2047 0,0 Z"/>
   <glyph unicode="t" horiz-adv-x="574" d="M 275,-20 C 218,-20 174,-3 142,31 109,65 93,110 93,166 93,203 98,246 108,296 L 234,951 109,951 135,1082 262,1082 367,1324 487,1324 440,1082 640,1082 614,951 414,951 289,306 C 281,266 277,234 277,211 277,152 307,123 367,123 395,123 428,128 467,137 L 448,4 C 382,-12 324,-20 275,-20 Z"/>
   <glyph unicode="s" horiz-adv-x="984" d="M 907,317 C 907,209 866,126 783,68 700,9 581,-20 425,-20 309,-20 217,-1 149,39 80,78 32,139 5,223 L 152,279 C 174,220 208,178 255,151 301,124 363,111 441,111 536,111 609,127 658,160 707,192 732,239 732,301 732,342 715,377 681,405 647,432 575,463 465,497 380,525 316,552 273,579 230,606 198,637 175,673 152,708 141,750 141,797 141,894 180,968 257,1021 334,1073 443,1099 584,1099 820,1099 953,1014 982,844 L 819,819 C 804,872 777,910 736,933 695,956 641,968 572,968 489,968 426,955 382,929 337,902 315,865 315,817 315,789 322,765 336,746 350,727 370,710 397,695 423,680 484,657 579,627 664,600 728,573 771,546 814,519 847,486 871,449 895,412 907,368 907,317 Z"/>
   <glyph unicode="r" horiz-adv-x="739" d="M 718,938 C 689,947 659,951 628,951 558,951 495,914 439,841 382,768 344,675 324,564 L 214,0 34,0 196,830 221,968 239,1082 409,1082 374,861 378,861 C 422,950 465,1012 508,1048 551,1084 600,1102 656,1102 687,1102 718,1097 751,1088 Z"/>
   <glyph unicode="p" horiz-adv-x="1148" d="M 554,-20 C 472,-20 405,-3 354,32 302,67 265,115 244,178 L 239,178 C 239,171 236,149 231,113 225,77 191,-102 128,-425 L -51,-425 198,861 C 213,935 225,1009 233,1082 L 400,1082 C 400,1064 398,1037 394,1000 389,963 386,936 383,921 L 387,921 C 436,984 487,1030 541,1059 595,1088 662,1102 741,1102 846,1102 927,1071 986,1008 1044,945 1073,858 1073,748 1073,613 1053,482 1012,355 971,228 913,133 839,72 764,11 669,-20 554,-20 Z M 689,963 C 623,963 567,950 520,923 473,896 433,855 400,801 367,746 342,678 323,597 304,515 295,442 295,377 295,294 316,229 359,183 401,136 460,113 535,113 618,113 683,138 731,189 779,239 817,319 844,429 871,538 885,634 885,716 885,798 869,860 838,901 807,942 757,963 689,963 Z"/>
   <glyph unicode="o" horiz-adv-x="1038" d="M 1074,683 C 1074,596 1061,506 1034,413 1007,319 969,240 920,175 870,110 809,61 737,29 665,-4 583,-20 491,-20 360,-20 257,19 181,98 105,177 67,284 67,419 70,555 94,676 141,781 188,886 252,966 335,1020 418,1074 520,1101 642,1101 782,1101 889,1065 963,992 1037,919 1074,816 1074,683 Z M 888,683 C 888,874 805,969 640,969 550,969 478,946 424,900 369,853 327,783 297,689 267,595 252,504 252,416 252,317 273,242 316,191 359,139 421,113 502,113 571,113 626,125 668,148 709,171 746,207 777,256 808,305 834,367 854,443 873,519 885,599 888,683 Z"/>
   <glyph unicode="n" horiz-adv-x="1039" d="M 717,0 L 843,645 C 855,704 861,754 861,795 861,906 801,962 682,962 598,962 524,930 460,866 396,802 353,715 332,606 L 214,0 34,0 200,851 C 213,914 226,991 239,1082 L 409,1082 C 409,1075 406,1049 399,1005 392,960 386,924 381,897 L 384,897 C 439,974 495,1027 551,1057 606,1086 672,1101 749,1101 848,1101 922,1077 972,1028 1021,979 1046,909 1046,817 1046,774 1039,720 1025,653 L 898,0 Z"/>
   <glyph unicode="m" horiz-adv-x="1585" d="M 660,0 L 784,634 C 801,717 809,775 809,808 809,858 796,896 771,923 746,949 704,962 647,962 570,962 502,929 445,863 387,797 349,711 331,604 L 213,0 34,0 200,851 C 213,914 226,991 239,1082 L 409,1082 C 409,1075 406,1049 399,1005 392,960 386,924 381,897 L 384,897 C 433,973 482,1026 531,1056 580,1086 638,1101 706,1101 787,1101 851,1081 898,1042 945,1002 974,944 983,869 1038,956 1093,1016 1147,1050 1200,1084 1262,1101 1331,1101 1421,1101 1490,1077 1539,1028 1587,979 1611,909 1611,817 1611,774 1604,720 1590,653 L 1463,0 1285,0 1409,634 C 1426,717 1434,775 1434,808 1434,858 1421,896 1396,923 1371,949 1329,962 1272,962 1195,962 1127,930 1070,865 1013,800 975,714 956,607 L 838,0 Z"/>
   <glyph unicode="i" horiz-adv-x="493" d="M 287,1312 L 321,1484 501,1484 467,1312 Z M 33,0 L 243,1082 423,1082 212,0 Z"/>
   <glyph unicode="e" horiz-adv-x="1011" d="M 256,503 C 252,480 249,442 247,390 247,301 269,233 314,186 358,139 425,115 514,115 579,115 637,131 690,163 743,195 784,239 813,294 L 951,231 C 902,144 841,80 766,40 691,0 600,-20 493,-20 359,-20 255,17 181,92 106,166 69,270 69,405 69,539 93,659 140,766 187,872 254,955 340,1014 426,1073 523,1102 630,1102 767,1102 873,1068 949,999 1025,930 1063,833 1063,708 1063,638 1055,570 1039,503 Z M 880,641 L 884,713 C 884,796 863,859 820,903 777,947 715,969 634,969 545,969 470,941 409,884 348,827 305,746 280,641 Z"/>
   <glyph unicode="a" horiz-adv-x="1066" d="M 927,-10 C 865,-10 820,3 792,29 763,54 749,92 749,143 L 754,207 748,207 C 693,123 635,64 576,31 517,-3 445,-20 361,-20 268,-20 192,8 134,64 75,120 46,191 46,278 46,401 90,495 179,558 267,621 408,654 601,657 L 833,660 C 846,725 852,768 852,787 852,848 834,893 799,922 764,951 715,965 652,965 573,965 513,951 472,923 431,894 402,851 384,793 L 206,822 C 236,920 288,991 363,1036 437,1080 537,1102 662,1102 776,1102 866,1075 933,1022 999,969 1032,897 1032,807 1032,764 1026,712 1013,650 L 939,272 C 932,240 928,211 928,184 928,135 955,111 1009,111 1027,111 1047,113 1069,118 L 1055,6 C 1011,-5 968,-10 927,-10 Z M 809,536 L 610,532 C 531,530 468,523 423,511 378,498 343,483 318,464 293,445 273,421 259,392 244,363 237,327 237,286 237,236 253,195 286,164 318,133 360,117 411,117 476,117 534,131 586,159 638,186 681,222 715,267 749,312 771,360 782,411 Z"/>
   <glyph unicode="P" horiz-adv-x="1312" d="M 852,1409 C 1006,1409 1128,1374 1218,1305 1308,1236 1353,1141 1353,1020 1353,873 1302,758 1201,675 1099,591 960,549 784,549 L 360,549 254,0 63,0 336,1409 Z M 390,700 L 777,700 C 1032,700 1159,804 1159,1011 1159,1090 1133,1151 1080,1193 1027,1235 950,1256 847,1256 L 498,1256 Z"/>
   <glyph unicode="N" horiz-adv-x="1448" d="M 987,0 L 456,1210 C 441,1096 427,1007 414,943 L 233,0 63,0 336,1409 548,1409 1082,194 C 1099,320 1114,415 1127,478 L 1308,1409 1480,1409 1207,0 Z"/>
   <glyph unicode="-" horiz-adv-x="574" d="M 105,464 L 136,624 636,624 605,464 Z"/>
   <glyph unicode=" " horiz-adv-x="574"/>
  </font>
 </defs>
 <defs class="TextShapeIndex">
  <g ooo:slide="id1" ooo:id-list="id3 id4 id5 id6 id7 id8 id9"/>
 </defs>
 <defs class="EmbeddedBulletChars">
  <g id="bullet-char-template-57356" transform="scale(0.00048828125,-0.00048828125)">
   <path d="M 580,1141 L 1163,571 580,0 -4,571 580,1141 Z"/>
  </g>
  <g id="bullet-char-template-57354" transform="scale(0.00048828125,-0.00048828125)">
   <path d="M 8,1128 L 1137,1128 1137,0 8,0 8,1128 Z"/>
  </g>
  <g id="bullet-char-template-10146" transform="scale(0.00048828125,-0.00048828125)">
   <path d="M 174,0 L 602,739 174,1481 1456,739 174,0 Z M 1358,739 L 309,1346 659,739 1358,739 Z"/>
  </g>
  <g id="bullet-char-template-10132" transform="scale(0.00048828125,-0.00048828125)">
   <path d="M 2015,739 L 1276,0 717,0 1260,543 174,543 174,936 1260,936 717,1481 1274,1481 2015,739 Z"/>
  </g>
  <g id="bullet-char-template-10007" transform="scale(0.00048828125,-0.00048828125)">
   <path d="M 0,-2 C -7,14 -16,27 -25,37 L 356,567 C 262,823 215,952 215,954 215,979 228,992 255,992 264,992 276,990 289,987 310,991 331,999 354,1012 L 381,999 492,748 772,1049 836,1024 860,1049 C 881,1039 901,1025 922,1006 886,937 835,863 770,784 769,783 710,716 594,584 L 774,223 C 774,196 753,168 711,139 L 727,119 C 717,90 699,76 672,76 641,76 570,178 457,381 L 164,-76 C 142,-110 111,-127 72,-127 30,-127 9,-110 8,-76 1,-67 -2,-52 -2,-32 -2,-23 -1,-13 0,-2 Z"/>
  </g>
  <g id="bullet-char-template-10004" transform="scale(0.00048828125,-0.00048828125)">
   <path d="M 285,-33 C 182,-33 111,30 74,156 52,228 41,333 41,471 41,549 55,616 82,672 116,743 169,778 240,778 293,778 328,747 346,684 L 369,508 C 377,444 397,411 428,410 L 1163,1116 C 1174,1127 1196,1133 1229,1133 1271,1133 1292,1118 1292,1087 L 1292,965 C 1292,929 1282,901 1262,881 L 442,47 C 390,-6 338,-33 285,-33 Z"/>
  </g>
  <g id="bullet-char-template-9679" transform="scale(0.00048828125,-0.00048828125)">
   <path d="M 813,0 C 632,0 489,54 383,161 276,268 223,411 223,592 223,773 276,916 383,1023 489,1130 632,1184 813,1184 992,1184 1136,1130 1245,1023 1353,916 1407,772 1407,592 1407,412 1353,268 1245,161 1136,54 992,0 813,0 Z"/>
  </g>
  <g id="bullet-char-template-8226" transform="scale(0.00048828125,-0.00048828125)">
   <path d="M 346,457 C 273,457 209,483 155,535 101,586 74,649 74,723 74,796 101,859 155,911 209,963 273,989 346,989 419,989 480,963 531,910 582,859 608,796 608,723 608,648 583,586 532,535 482,483 420,457 346,457 Z"/>
  </g>
  <g id="bullet-char-template-8211" transform="scale(0.00048828125,-0.00048828125)">
   <path d="M -4,459 L 1135,459 1135,606 -4,606 -4,459 Z"/>
  </g>
  <g id="bullet-char-template-61548" transform="scale(0.00048828125,-0.00048828125)">
   <path d="M 173,740 C 173,903 231,1043 346,1159 462,1274 601,1332 765,1332 928,1332 1067,1274 1183,1159 1299,1043 1357,903 1357,740 1357,577 1299,437 1183,322 1067,206 928,148 765,148 601,148 462,206 346,322 231,437 173,577 173,740 Z"/>
  </g>
 </defs>
 <g>
  <g id="id2" class="Master_Slide">
   <g id="bg-id2" class="Background"/>
   <g id="bo-id2" class="BackgroundObjects"/>
  </g>
 </g>
 <g class="SlideGroup">
  <g>
   <g id="container-id1">
    <g id="id1" class="Slide" clip-path="url(#presentation_clip_path)">
     <g class="Page">
      <g class="com.sun.star.drawing.LineShape">
       <g id="id3">
        <rect class="BoundingBox" stroke="none" fill="none" x="10337" y="12267" width="359" height="1806"/>
        <path fill="none" stroke="rgb(114,159,207)" stroke-width="35" stroke-linejoin="round" d="M 10516,13560 L 10516,12772"/>
        <path fill="rgb(114,159,207)" stroke="none" d="M 10516,14072 L 10695,13537 10338,13537 10516,14072 Z"/>
        <path fill="rgb(114,159,207)" stroke="none" d="M 10516,12267 L 10340,12795 10692,12795 10516,12267 Z"/>
       </g>
      </g>
      <g class="com.sun.star.drawing.TextShape">
       <g id="id4">
        <rect class="BoundingBox" stroke="none" fill="none" x="1651" y="1753" width="18289" height="10516"/>
        <text class="TextShape"><tspan class="TextParagraph" font-family="Liberation Sans, sans-serif" font-size="494px" font-style="italic" font-weight="400"><tspan class="TextPosition" x="7792" y="2327"><tspan fill="rgb(0,132,209)" stroke="none">Non-parameter Properties</tspan><tspan font-style="normal" fill="rgb(0,132,209)" stroke="none">: </tspan></tspan></tspan><tspan class="TextParagraph" font-family="Courier New" font-size="353px" font-weight="400"><tspan class="TextPosition" x="2434" y="3280"><tspan fill="rgb(0,132,209)" stroke="none">ad9361_rf_phy, ad9361_init, en_state_machine_mode, rx_rf_gain, rx_rf_bandwidth, </tspan></tspan><tspan class="TextPosition" x="2858" y="3678"><tspan fill="rgb(0,132,209)" stroke="none">rx_sampling_freq, rx_lo_freq, rx_lo_int_ext, </tspan><tspan fill="rgb(0,132,209)" stroke="none">rx_rssi</tspan><tspan fill="rgb(0,132,209)" stroke="none">, </tspan><tspan fill="rgb(0,132,209)" stroke="none">rx_gain_control_mode</tspan><tspan fill="rgb(0,132,209)" stroke="none">, </tspan></tspan><tspan class="TextPosition" x="2646" y="4076"><tspan fill="rgb(0,132,209)" stroke="none">rx_fir_config_write</tspan><tspan fill="rgb(0,132,209)" stroke="none">, </tspan><tspan fill="rgb(0,132,209)" stroke="none">rx_fir_config_read</tspan><tspan fill="rgb(0,132,209)" stroke="none">, </tspan><tspan fill="rgb(0,132,209)" stroke="none">rx_fir_en_dis</tspan><tspan fill="rgb(0,132,209)" stroke="none">, </tspan><tspan fill="rgb(0,132,209)" stroke="none">rx_rfdc_track_en_dis</tspan><tspan fill="rgb(0,132,209)" stroke="none">, </tspan></tspan><tspan class="TextPosition" x="2329" y="4474"><tspan fill="rgb(0,132,209)" stroke="none">rx_bbdc_track_en_dis</tspan><tspan fill="rgb(0,132,209)" stroke="none">, </tspan><tspan fill="rgb(0,132,209)" stroke="none">rx_quad_track_en_dis</tspan><tspan fill="rgb(0,132,209)" stroke="none">, </tspan><tspan fill="rgb(0,132,209)" stroke="none">rx_rf_port_input</tspan><tspan fill="rgb(0,132,209)" stroke="none">, </tspan><tspan fill="rgb(0,132,209)" stroke="none">rx_fastlock_store</tspan><tspan fill="rgb(0,132,209)" stroke="none">, </tspan></tspan><tspan class="TextPosition" x="3281" y="4872"><tspan fill="rgb(0,132,209)" stroke="none">rx_fastlock_recall</tspan><tspan fill="rgb(0,132,209)" stroke="none">, </tspan><tspan fill="rgb(0,132,209)" stroke="none">rx_fastlock_load</tspan><tspan fill="rgb(0,132,209)" stroke="none">, </tspan><tspan fill="rgb(0,132,209)" stroke="none">rx_fastlock_save</tspan><tspan fill="rgb(0,132,209)" stroke="none">, </tspan><tspan fill="rgb(0,132,209)" stroke="none">tx_attenuation</tspan><tspan fill="rgb(0,132,209)" stroke="none">,</tspan></tspan><tspan class="TextPosition" x="2117" y="5270"><tspan fill="rgb(0,132,209)" stroke="none">tx_rf_bandwidth</tspan><tspan fill="rgb(0,132,209)" stroke="none">, </tspan><tspan fill="rgb(0,132,209)" stroke="none">tx_sampling_freq</tspan><tspan fill="rgb(0,132,209)" stroke="none">, </tspan><tspan fill="rgb(0,132,209)" stroke="none">tx_lo_freq</tspan><tspan fill="rgb(0,132,209)" stroke="none">, </tspan><tspan fill="rgb(0,132,209)" stroke="none">tx_lo_int_ext</tspan><tspan fill="rgb(0,132,209)" stroke="none">, </tspan><tspan fill="rgb(0,132,209)" stroke="none">tx_fir_config_write</tspan><tspan fill="rgb(0,132,209)" stroke="none">, </tspan></tspan><tspan class="TextPosition" x="2117" y="5668"><tspan fill="rgb(0,132,209)" stroke="none">tx_fir_config_read</tspan><tspan fill="rgb(0,132,209)" stroke="none">, </tspan><tspan fill="rgb(0,132,209)" stroke="none">tx_fir_en_dis</tspan><tspan fill="rgb(0,132,209)" stroke="none">, </tspan><tspan fill="rgb(0,132,209)" stroke="none">tx_rssi</tspan><tspan fill="rgb(0,132,209)" stroke="none">, </tspan><tspan fill="rgb(0,132,209)" stroke="none">tx_rf_port_output</tspan><tspan fill="rgb(0,132,209)" stroke="none">, </tspan><tspan fill="rgb(0,132,209)" stroke="none">tx_auto_cal_en_dis</tspan><tspan fill="rgb(0,132,209)" stroke="none">,</tspan></tspan><tspan class="TextPosition" x="2964" y="6066"><tspan fill="rgb(0,132,209)" stroke="none">tx_fastlock_store</tspan><tspan fill="rgb(0,132,209)" stroke="none">, </tspan><tspan fill="rgb(0,132,209)" stroke="none">tx_fastlock_recall</tspan><tspan fill="rgb(0,132,209)" stroke="none">, </tspan><tspan fill="rgb(0,132,209)" stroke="none">tx_fastlock_load</tspan><tspan fill="rgb(0,132,209)" stroke="none">, </tspan><tspan fill="rgb(0,132,209)" stroke="none">tx_fastlock_save</tspan><tspan fill="rgb(0,132,209)" stroke="none">,</tspan></tspan><tspan class="TextPosition" x="3811" y="6464"><tspan fill="rgb(0,132,209)" stroke="none">trx_path_clks</tspan><tspan fill="rgb(0,132,209)" stroke="none">, </tspan><tspan fill="rgb(0,132,209)" stroke="none">no_ch_mode</tspan><tspan fill="rgb(0,132,209)" stroke="none">, </tspan><tspan fill="rgb(0,132,209)" stroke="none">trx_fir_en_dis</tspan><tspan fill="rgb(0,132,209)" stroke="none">, </tspan><tspan fill="rgb(0,132,209)" stroke="none">trx_rate_gov</tspan><tspan fill="rgb(0,132,209)" stroke="none">, </tspan><tspan fill="rgb(0,132,209)" stroke="none">do_calib</tspan><tspan fill="rgb(0,132,209)" stroke="none">, </tspan></tspan><tspan class="TextPosition" x="8678" y="6862"><tspan fill="rgb(0,132,209)" stroke="none">trx_load_enable_fir</tspan><tspan fill="rgb(0,132,209)" stroke="none">,</tspan></tspan><tspan class="TextPosition" x="2540" y="7260"><tspan fill="rgb(0,132,209)" stroke="none">do_dcxo_tune_coarse</tspan><tspan fill="rgb(0,132,209)" stroke="none">, </tspan><tspan fill="rgb(0,132,209)" stroke="none">do_dcxo_tune_fine</tspan><tspan fill="rgb(0,132,209)" stroke="none">, temperature, bist_loopback, bist_prbs, </tspan></tspan><tspan class="TextPosition" x="4445" y="7658"><tspan fill="rgb(0,132,209)" stroke="none">bist_tone, THB3_Enable_and_Interp, THB2_Enable, THB1_Enable, </tspan></tspan><tspan class="TextPosition" x="2117" y="8056"><tspan fill="rgb(0,132,209)" stroke="none">RHB3_Enable_and_Decimation, RHB2_Enable, RHB1_Enable, DAC_Clk_div2, BBPLL_Divider, </tspan></tspan><tspan class="TextPosition" x="2329" y="8454"><tspan fill="rgb(0,132,209)" stroke="none">Fractional_BB_Frequency_Word, Integer_BB_Frequency_Word, BBPLL_Ref_Clock_Scaler, </tspan></tspan><tspan class="TextPosition" x="2223" y="8852"><tspan fill="rgb(0,132,209)" stroke="none">Tx_BBF_Tune_Divider, Tx_Secondary_Filter_Resistor, Tx_Secondary_Filter_Capacitor, </tspan></tspan><tspan class="TextPosition" x="2858" y="9250"><tspan fill="rgb(0,132,209)" stroke="none">Rx_BBF_Tune_Divide, bb_pll_is_locked, rx_pll_is_locked, rx_fastlock_delete, </tspan></tspan><tspan class="TextPosition" x="8996" y="9648"><tspan fill="rgb(0,132,209)" stroke="none">tx_pll_is_locked,</tspan></tspan></tspan><tspan class="TextParagraph" font-family="Courier New" font-size="353px" font-weight="400"><tspan class="TextPosition" x="2964" y="10046"><tspan fill="rgb(0,132,209)" stroke="none">tx_fastlock_delete, rx_vco_divider, rx_vco_n_integer, rx_vco_n_fractional,</tspan></tspan></tspan><tspan class="TextParagraph" font-family="Courier New" font-size="353px" font-weight="400"><tspan class="TextPosition" x="3387" y="10444"><tspan fill="rgb(0,132,209)" stroke="none">Rx_Ref_Divider, tx_vco_divider, tx_vco_n_integer, tx_vco_n_fractional, </tspan></tspan><tspan class="TextPosition" x="2329" y="10842"><tspan fill="rgb(0,132,209)" stroke="none">Tx_Ref_Divider, Tx_Channel_Swap, Rx_Channel_Swap, LVDS, single_port, swap_ports, </tspan></tspan><tspan class="TextPosition" x="2540" y="11240"><tspan fill="rgb(0,132,209)" stroke="none">half_duplex, data_rate_config, DATA_CLK_P_rate_Hz, BIST_Mask_Channel_2_Q_data, </tspan></tspan><tspan class="TextPosition" x="2011" y="11638"><tspan fill="rgb(0,132,209)" stroke="none">BIST_Mask_Channel_2_I_data, BIST_Mask_Channel_1_Q_data, BIST_Mask_Channel_1_I_data, </tspan></tspan><tspan class="TextPosition" x="7832" y="12036"><tspan fill="rgb(0,132,209)" stroke="none">digital_rx_block_delay_sec  </tspan></tspan></tspan></text>
       </g>
      </g>
      <g class="com.sun.star.drawing.TextShape">
       <g id="id5">
        <rect class="BoundingBox" stroke="none" fill="none" x="5436" y="24232" width="10415" height="1652"/>
        <text class="TextShape"><tspan class="TextParagraph" font-family="Liberation Sans, sans-serif" font-size="494px" font-weight="400"><tspan class="TextPosition" x="9883" y="24806"><tspan fill="rgb(0,0,0)" stroke="none">Slave: </tspan></tspan></tspan><tspan class="TextParagraph" font-family="Courier New" font-size="494px" font-weight="700"><tspan class="TextPosition" x="6050" y="25323"><tspan fill="rgb(0,0,0)" stroke="none">platform_ad9361_config_csts.hdl</tspan></tspan></tspan></text>
       </g>
      </g>
      <g class="com.sun.star.drawing.CustomShape">
       <g id="id6">
        <rect class="BoundingBox" stroke="none" fill="none" x="2158" y="14171" width="17275" height="7623"/>
        <path fill="rgb(114,159,207)" stroke="none" d="M 10795,21792 L 2159,21792 2159,14172 19431,14172 19431,21792 10795,21792 Z"/>
        <path fill="none" stroke="rgb(52,101,164)" d="M 10795,21792 L 2159,21792 2159,14172 19431,14172 19431,21792 10795,21792 Z"/>
       </g>
      </g>
      <g class="com.sun.star.drawing.TextShape">
       <g id="id7">
        <rect class="BoundingBox" stroke="none" fill="none" x="6452" y="20395" width="8700" height="1144"/>
        <text class="TextShape"><tspan class="TextParagraph" font-family="Liberation Sans, sans-serif" font-size="635px" font-weight="400"><tspan class="TextPosition" x="6702" y="21096"><tspan fill="rgb(255,255,255)" stroke="none">AD9361 Config Proxy CSTS</tspan></tspan></tspan></text>
       </g>
      </g>
      <g class="com.sun.star.drawing.TextShape">
       <g id="id8">
        <rect class="BoundingBox" stroke="none" fill="none" x="2642" y="14177" width="16765" height="6346"/>
        <text class="TextShape"><tspan class="TextParagraph" font-family="Liberation Sans, sans-serif" font-size="494px" font-style="italic" font-weight="400"><tspan class="TextPosition" x="8529" y="14751"><tspan fill="rgb(255,255,255)" stroke="none">Parameter Properties</tspan><tspan font-style="normal" fill="rgb(255,255,255)" stroke="none">: </tspan></tspan></tspan><tspan class="TextParagraph" font-family="Courier New" font-size="353px" font-weight="400"><tspan class="TextPosition" x="3828" y="15704"><tspan fill="rgb(255,255,255)" stroke="none">rx_nchannels, tx_nchannels, ENABLE, DISABLE, A_BALANCED, B_BALANCED, </tspan></tspan><tspan class="TextPosition" x="3087" y="16102"><tspan fill="rgb(255,255,255)" stroke="none">C_BALANCED, A_N, A_P, B_N, B_P, C_N, C_P, TX_MON1, TX_MON2, TX_MON1_2, TXA, </tspan></tspan><tspan class="TextPosition" x="4251" y="16500"><tspan fill="rgb(255,255,255)" stroke="none">TXB, ENSM_MODE_TX, ENSM_MODE_RX, ENSM_MODE_ALERT, ENSM_MODE_FDD, </tspan></tspan><tspan class="TextPosition" x="5627" y="16898"><tspan fill="rgb(255,255,255)" stroke="none">ENSM_MODE_WAIT, ENSM_MODE_SLEEP, ENSM_MODE_PINCTRL, </tspan></tspan><tspan class="TextPosition" x="4992" y="17296"><tspan fill="rgb(255,255,255)" stroke="none">ENSM_MODE_PINCTRL_FDD_INDEP, INT_LO, EXT_LO, RF_GAIN_MGC, </tspan></tspan><tspan class="TextPosition" x="2981" y="17694"><tspan fill="rgb(255,255,255)" stroke="none">RF_GAIN_FASTATTACK_AGC, RF_GAIN_SLOWATTACK_AGC, RF_GAIN_HYBRID_AGC, FIR_TX1, </tspan></tspan><tspan class="TextPosition" x="3123" y="18249"><tspan fill="rgb(255,255,255)" stroke="none">FIR_TX2, FIR_TX1_TX2, FIR_RX1, FIR_RX2, FIR_RX1_RX2, FIR_IS_RX,</tspan><tspan font-family="Liberation Sans, sans-serif" font-size="494px" fill="rgb(255,255,255)" stroke="none"> </tspan><tspan fill="rgb(255,255,255)" stroke="none">RX_1, RX_2, </tspan></tspan><tspan class="TextPosition" x="4463" y="18647"><tspan fill="rgb(255,255,255)" stroke="none">TX_1, TX_2, BPLL_FREQ, ADC_FREQ, R2_FREQ, R1_FREQ, CLKRF_FREQ, </tspan></tspan><tspan class="TextPosition" x="4145" y="19045"><tspan fill="rgb(255,255,255)" stroke="none">RX_SAMPL_FREQ, NUM_RX_CLOCKS, IGNORE, DAC_FREQ, T2_FREQ, T1_FREQ, </tspan></tspan><tspan class="TextPosition" x="3828" y="19443"><tspan fill="rgb(255,255,255)" stroke="none">CLKTF_FREQ, TX_SAMPL_FREQ, NUM_TX_CLOCKS, BIST_DISABLE, BIST_INJ_TX, </tspan></tspan><tspan class="TextPosition" x="4886" y="19841"><tspan fill="rgb(255,255,255)" stroke="none">BIST_INJ_RX, MODE_1x1, MODE_2x2, HIGHEST_OSR, NOMINAL_OSR </tspan></tspan></tspan></text>
       </g>
      </g>
      <g class="com.sun.star.drawing.LineShape">
       <g id="id9">
        <rect class="BoundingBox" stroke="none" fill="none" x="10464" y="21919" width="359" height="2314"/>
        <path fill="none" stroke="rgb(0,0,0)" stroke-width="35" stroke-linejoin="round" d="M 10643,23720 L 10643,23510"/>
        <path fill="none" stroke="rgb(0,0,0)" stroke-width="35" stroke-linejoin="round" d="M 10643,23405 L 10643,23195"/>
        <path fill="none" stroke="rgb(0,0,0)" stroke-width="35" stroke-linejoin="round" d="M 10643,23090 L 10643,22880"/>
        <path fill="none" stroke="rgb(0,0,0)" stroke-width="35" stroke-linejoin="round" d="M 10643,22775 L 10643,22565"/>
        <path fill="none" stroke="rgb(0,0,0)" stroke-width="35" stroke-linejoin="round" d="M 10643,22460 L 10643,22424"/>
        <path fill="rgb(0,0,0)" stroke="none" d="M 10643,24232 L 10822,23697 10465,23697 10643,24232 Z"/>
        <path fill="rgb(0,0,0)" stroke="none" d="M 10643,21919 L 10467,22447 10819,22447 10643,21919 Z"/>
       </g>
      </g>
     </g>
    </g>
   </g>
  </g>
 </g>
</svg>